riscv/src/testbench/cdc/test.vcd
$date
	Sat Nov 20 22:21:20 2021
$end
$version
	Icarus Verilog
$end
$timescale
	1ps
$end
$scope module testbench $end
$scope module top $end
$scope module cpu0 $end
$var wire 1 ! clk_in $end
$var wire 32 " dbgreg_dout [31:0] $end
$var wire 1 # is_receive_from_iq_to_fc $end
$var wire 8 $ mem_din [7:0] $end
$var wire 1 % rdy_in $end
$var wire 1 & rst_in $end
$var wire 32 ' pc_from_iq_to_dc [31:0] $end
$var wire 1 ( mem_wr $end
$var wire 8 ) mem_dout [7:0] $end
$var wire 32 * mem_a [31:0] $end
$var wire 1 + is_stall_from_fc_to_iq $end
$var wire 1 , is_instr_from_fc_to_iq $end
$var wire 1 - is_finish_from_fc_to_iq $end
$var wire 1 . is_empty_from_iq_to_fc $end
$var wire 1 / is_empty_from_iq_to_dc $end
$var wire 1 0 io_buffer_full $end
$var wire 32 1 instr_from_iq_to_dc [31:0] $end
$var wire 32 2 instr_from_fc_to_iq [31:0] $end
$var wire 32 3 addr_from_iq_to_fc [31:0] $end
$var reg 1 4 false $end
$var reg 1 5 true $end
$scope module mdc $end
$var wire 32 6 imm_to_reg [31:0] $end
$var wire 1 7 is_empty_from_to_reg $end
$var wire 1 8 is_empty_to_reg $end
$var wire 32 9 pc_to_reg [31:0] $end
$var wire 5 : rd_to_reg [4:0] $end
$var wire 5 ; rs1_to_reg [4:0] $end
$var wire 5 < rs2_to_reg [4:0] $end
$var wire 1 & rst $end
$var wire 32 = pc_from_instr_queue [31:0] $end
$var wire 1 / is_empty_from_instr_queue $end
$var wire 32 > instr_from_instr_queue [31:0] $end
$var reg 32 ? imm [31:0] $end
$var reg 32 @ instr [31:0] $end
$var reg 6 A op [5:0] $end
$var reg 32 B pc [31:0] $end
$var reg 5 C rd [4:0] $end
$var reg 5 D rs1 [4:0] $end
$var reg 5 E rs2 [4:0] $end
$upscope $end
$scope module mfc $end
$var wire 32 F addr_from_slb [31:0] $end
$var wire 32 G addr_to_iq [31:0] $end
$var wire 32 H addr_to_ram [31:0] $end
$var wire 1 ! clk $end
$var wire 8 I data_from_ram [7:0] $end
$var wire 32 J data_from_slb [31:0] $end
$var wire 32 K data_to_iq [31:0] $end
$var wire 8 L data_to_ram [7:0] $end
$var wire 32 M data_to_slb [31:0] $end
$var wire 1 5 is_empty_from_slb $end
$var wire 1 N is_exception_from_rob $end
$var wire 1 - is_finish_to_iq $end
$var wire 1 O is_finish_to_slb $end
$var wire 1 , is_instr_to_iq $end
$var wire 1 P is_instr_to_slb $end
$var wire 1 # is_receive_from_iq $end
$var wire 1 Q is_receive_from_slb $end
$var wire 1 + is_stall_to_iq $end
$var wire 1 R is_stall_to_slb $end
$var wire 1 S is_store_from_slb $end
$var wire 1 ( is_store_to_ram $end
$var wire 1 & rst $end
$var wire 1 . is_empty_from_iq $end
$var wire 32 T addr_from_iq [31:0] $end
$var reg 32 U addr [31:0] $end
$var reg 32 V addr_iq [31:0] $end
$var reg 8 W char [7:0] $end
$var reg 2 X cnt [1:0] $end
$var reg 32 Y data [31:0] $end
$var reg 5 Z head_pointer [4:0] $end
$var reg 1 [ is_finish $end
$var reg 1 \ is_instr $end
$var reg 1 ] is_past $end
$var reg 1 ^ is_stall $end
$var reg 1 _ is_start $end
$var reg 1 ( is_store $end
$var reg 5 ` tail_pointer [4:0] $end
$var reg 32 a testAddr [31:0] $end
$var integer 32 b i [31:0] $end
$upscope $end
$scope module miq $end
$var wire 1 c addr_from_fc $end
$var wire 1 ! clk $end
$var wire 32 d instr_from_fc [31:0] $end
$var wire 32 e instr_to_dc [31:0] $end
$var wire 1 / is_empty_to_dc $end
$var wire 1 . is_empty_to_fc $end
$var wire 1 f is_exception_from_rob $end
$var wire 1 - is_finish_from_fc $end
$var wire 1 , is_instr_from_fc $end
$var wire 1 # is_receive_to_fc $end
$var wire 1 + is_stall_from_fc $end
$var wire 1 4 is_stall_from_rob $end
$var wire 32 g pc_from_rob [31:0] $end
$var wire 32 h pc_to_dc [31:0] $end
$var wire 32 i pc_to_fc [31:0] $end
$var wire 1 & rst $end
$var reg 4 j head_pointer [3:0] $end
$var reg 32 k instr_dc [31:0] $end
$var reg 1 / is_empty_dc $end
$var reg 1 l is_empty_fc $end
$var reg 32 m pc_dc [31:0] $end
$var reg 32 n pc_fc [31:0] $end
$var reg 4 o store_pointer [3:0] $end
$var reg 4 p tail_pointer [3:0] $end
$var reg 32 q test [31:0] $end
$var integer 32 r i [31:0] $end
$upscope $end
$upscope $end
$upscope $end
$upscope $end
$scope module testbench $end
$scope module top $end
$scope module hci0 $end
$var wire 1 ! clk $end
$var wire 32 s cpu_dbgreg_din [31:0] $end
$var wire 8 t io_din [7:0] $end
$var wire 1 u io_en $end
$var wire 1 0 io_full $end
$var wire 3 v io_sel [2:0] $end
$var wire 1 w io_wr $end
$var wire 17 x ram_a [16:0] $end
$var wire 8 y ram_din [7:0] $end
$var wire 8 z ram_dout [7:0] $end
$var wire 1 { rst $end
$var wire 1 | rx $end
$var wire 1 } tx_full $end
$var wire 1 ~ tx $end
$var wire 1 !" rx_empty $end
$var wire 8 "" rd_data [7:0] $end
$var wire 1 #" parity_err $end
$var wire 8 $" io_in_rd_data [7:0] $end
$var wire 1 %" io_in_full $end
$var wire 1 &" io_in_empty $end
$var wire 8 '" io_dout [7:0] $end
$var wire 32 (" d_cpu_cycle_cnt [31:0] $end
$var wire 1 )" active $end
$var reg 17 *" d_addr [16:0] $end
$var reg 3 +" d_decode_cnt [2:0] $end
$var reg 2 ," d_err_code [1:0] $end
$var reg 17 -" d_execute_cnt [16:0] $end
$var reg 8 ." d_io_dout [7:0] $end
$var reg 8 /" d_io_in_wr_data [7:0] $end
$var reg 1 0" d_io_in_wr_en $end
$var reg 1 1" d_program_finish $end
$var reg 5 2" d_state [4:0] $end
$var reg 8 3" d_tx_data [7:0] $end
$var reg 1 4" d_wr_en $end
$var reg 1 5" io_in_rd_en $end
$var reg 1 6" program_finish $end
$var reg 17 7" q_addr [16:0] $end
$var reg 32 8" q_cpu_cycle_cnt [31:0] $end
$var reg 3 9" q_decode_cnt [2:0] $end
$var reg 2 :" q_err_code [1:0] $end
$var reg 17 ;" q_execute_cnt [16:0] $end
$var reg 8 <" q_io_dout [7:0] $end
$var reg 1 =" q_io_en $end
$var reg 8 >" q_io_in_wr_data [7:0] $end
$var reg 1 ?" q_io_in_wr_en $end
$var reg 5 @" q_state [4:0] $end
$var reg 8 A" q_tx_data [7:0] $end
$var reg 1 B" q_wr_en $end
$var reg 1 C" ram_wr $end
$var reg 1 D" rd_en $end
$scope module io_in_fifo $end
$var wire 10 E" addr_bits_wide_1 [9:0] $end
$var wire 1 ! clk $end
$var wire 1 F" d_empty $end
$var wire 1 G" d_full $end
$var wire 1 &" empty $end
$var wire 1 %" full $end
$var wire 8 H" rd_data [7:0] $end
$var wire 1 5" rd_en $end
$var wire 1 I" rd_en_prot $end
$var wire 1 { reset $end
$var wire 8 J" wr_data [7:0] $end
$var wire 1 ?" wr_en $end
$var wire 1 K" wr_en_prot $end
$var wire 10 L" d_wr_ptr [9:0] $end
$var wire 10 M" d_rd_ptr [9:0] $end
$var wire 8 N" d_data [7:0] $end
$var reg 1 O" q_empty $end
$var reg 1 P" q_full $end
$var reg 10 Q" q_rd_ptr [9:0] $end
$var reg 10 R" q_wr_ptr [9:0] $end
$upscope $end
$scope module uart_blk $end
$var wire 1 ! clk $end
$var wire 1 S" d_rx_parity_err $end
$var wire 1 #" parity_err $end
$var wire 1 D" rd_en $end
$var wire 1 { reset $end
$var wire 1 | rx $end
$var wire 8 T" tx_data [7:0] $end
$var wire 1 B" wr_en $end
$var wire 1 } tx_full $end
$var wire 8 U" tx_fifo_rd_data [7:0] $end
$var wire 1 V" tx_fifo_empty $end
$var wire 1 W" tx_done_tick $end
$var wire 1 ~ tx $end
$var wire 1 X" rx_parity_err $end
$var wire 8 Y" rx_fifo_wr_data [7:0] $end
$var wire 1 !" rx_empty $end
$var wire 1 Z" rx_done_tick $end
$var wire 8 [" rx_data [7:0] $end
$var wire 1 \" baud_clk_tick $end
$var reg 1 ]" q_rx_parity_err $end
$scope module uart_baud_clk_blk $end
$var wire 1 ! clk $end
$var wire 1 { reset $end
$var wire 16 ^" d_cnt [15:0] $end
$var wire 1 \" baud_clk_tick $end
$var reg 16 _" q_cnt [15:0] $end
$upscope $end
$scope module uart_rx_blk $end
$var wire 1 \" baud_clk_tick $end
$var wire 1 ! clk $end
$var wire 1 { reset $end
$var wire 1 | rx $end
$var wire 8 `" rx_data [7:0] $end
$var wire 1 Z" rx_done_tick $end
$var wire 1 X" parity_err $end
$var reg 8 a" d_data [7:0] $end
$var reg 3 b" d_data_bit_idx [2:0] $end
$var reg 1 c" d_done_tick $end
$var reg 4 d" d_oversample_tick_cnt [3:0] $end
$var reg 1 e" d_parity_err $end
$var reg 5 f" d_state [4:0] $end
$var reg 8 g" q_data [7:0] $end
$var reg 3 h" q_data_bit_idx [2:0] $end
$var reg 1 Z" q_done_tick $end
$var reg 4 i" q_oversample_tick_cnt [3:0] $end
$var reg 1 X" q_parity_err $end
$var reg 1 j" q_rx $end
$var reg 5 k" q_state [4:0] $end
$upscope $end
$scope module uart_rx_fifo $end
$var wire 3 l" addr_bits_wide_1 [2:0] $end
$var wire 1 ! clk $end
$var wire 1 m" d_empty $end
$var wire 1 n" d_full $end
$var wire 1 !" empty $end
$var wire 1 o" full $end
$var wire 8 p" rd_data [7:0] $end
$var wire 1 D" rd_en $end
$var wire 1 q" rd_en_prot $end
$var wire 1 { reset $end
$var wire 8 r" wr_data [7:0] $end
$var wire 1 Z" wr_en $end
$var wire 1 s" wr_en_prot $end
$var wire 3 t" d_wr_ptr [2:0] $end
$var wire 3 u" d_rd_ptr [2:0] $end
$var wire 8 v" d_data [7:0] $end
$var reg 1 w" q_empty $end
$var reg 1 x" q_full $end
$var reg 3 y" q_rd_ptr [2:0] $end
$var reg 3 z" q_wr_ptr [2:0] $end
$upscope $end
$scope module uart_tx_blk $end
$var wire 1 \" baud_clk_tick $end
$var wire 1 ! clk $end
$var wire 1 { reset $end
$var wire 1 ~ tx $end
$var wire 1 W" tx_done_tick $end
$var wire 1 {" tx_start $end
$var wire 8 |" tx_data [7:0] $end
$var reg 4 }" d_baud_clk_tick_cnt [3:0] $end
$var reg 8 ~" d_data [7:0] $end
$var reg 3 !# d_data_bit_idx [2:0] $end
$var reg 1 "# d_parity_bit $end
$var reg 5 ## d_state [4:0] $end
$var reg 1 $# d_tx $end
$var reg 1 %# d_tx_done_tick $end
$var reg 4 &# q_baud_clk_tick_cnt [3:0] $end
$var reg 8 '# q_data [7:0] $end
$var reg 3 (# q_data_bit_idx [2:0] $end
$var reg 1 )# q_parity_bit $end
$var reg 5 *# q_state [4:0] $end
$var reg 1 +# q_tx $end
$var reg 1 W" q_tx_done_tick $end
$upscope $end
$scope module uart_tx_fifo $end
$var wire 10 ,# addr_bits_wide_1 [9:0] $end
$var wire 1 ! clk $end
$var wire 1 -# d_empty $end
$var wire 1 .# d_full $end
$var wire 1 V" empty $end
$var wire 1 } full $end
$var wire 8 /# rd_data [7:0] $end
$var wire 1 W" rd_en $end
$var wire 1 0# rd_en_prot $end
$var wire 1 { reset $end
$var wire 8 1# wr_data [7:0] $end
$var wire 1 B" wr_en $end
$var wire 1 2# wr_en_prot $end
$var wire 10 3# d_wr_ptr [9:0] $end
$var wire 10 4# d_rd_ptr [9:0] $end
$var wire 8 5# d_data [7:0] $end
$var reg 1 6# q_empty $end
$var reg 1 7# q_full $end
$var reg 10 8# q_rd_ptr [9:0] $end
$var reg 10 9# q_wr_ptr [9:0] $end
$upscope $end
$upscope $end
$upscope $end
$upscope $end
$upscope $end
$scope module testbench $end
$scope module top $end
$scope module hci0 $end
$scope module io_in_fifo $end
$upscope $end
$scope module uart_blk $end
$scope module uart_baud_clk_blk $end
$upscope $end
$scope module uart_rx_blk $end
$upscope $end
$scope module uart_rx_fifo $end
$upscope $end
$scope module uart_tx_blk $end
$upscope $end
$scope module uart_tx_fifo $end
$upscope $end
$upscope $end
$upscope $end
$upscope $end
$upscope $end
$scope module testbench $end
$scope module top $end
$scope module hci0 $end
$scope module io_in_fifo $end
$upscope $end
$scope module uart_blk $end
$scope module uart_baud_clk_blk $end
$upscope $end
$scope module uart_rx_blk $end
$upscope $end
$scope module uart_rx_fifo $end
$upscope $end
$scope module uart_tx_blk $end
$upscope $end
$scope module uart_tx_fifo $end
$upscope $end
$upscope $end
$upscope $end
$upscope $end
$upscope $end
$enddefinitions $end
#0
$dumpvars
bx 9#
bx 8#
x7#
x6#
bx 5#
bx 4#
bx 3#
x2#
bx 1#
00#
bx /#
x.#
x-#
b1 ,#
1+#
b1 *#
0)#
b0 (#
b0 '#
b0 &#
0%#
1$#
b1 ##
0"#
b0 !#
b0 ~"
b0 }"
bx |"
x{"
bx z"
bx y"
xx"
xw"
bx v"
bx u"
bx t"
0s"
b0 r"
0q"
bx p"
xo"
xn"
xm"
b1 l"
b1 k"
1j"
b0 i"
b0 h"
b0 g"
b1 f"
0e"
b0 d"
0c"
b0 b"
b0 a"
b0 `"
b0 _"
b1 ^"
0]"
0\"
bx ["
0Z"
b0 Y"
0X"
0W"
xV"
bx U"
bx T"
0S"
bx R"
bx Q"
xP"
xO"
bx N"
bx M"
bx L"
xK"
bx J"
0I"
bx H"
xG"
xF"
b1 E"
0D"
0C"
xB"
bx A"
bx @"
x?"
bx >"
x="
bx <"
bx ;"
bx :"
bx 9"
bx 8"
bx 7"
x6"
05"
04"
b0 3"
bx 2"
01"
00"
b0 /"
b0 ."
bx -"
bx ,"
bx +"
bx *"
x)"
bx ("
bx '"
x&"
x%"
bx $"
0#"
bx ""
x!"
1~
x}
z|
1{
bx z
bx y
bx x
0w
bx v
xu
bx t
bz s
b10000 r
bx q
b0 p
b0 o
b1000000000000 n
b0 m
0l
b0 k
b0 j
b1000000000000 i
b0 h
bz g
zf
b0 e
b0 d
zc
b11111 b
bx a
b0 `
0_
0^
0]
0\
0[
b0 Z
b0 Y
b0 X
bx W
bx V
bx U
b1000000000000 T
zS
0R
zQ
0P
0O
zN
b0 M
bx L
b0 K
bz J
bx I
bx H
bx G
bz F
b0 E
b0 D
b0 C
b0 B
bx A
b0 @
b0 ?
b0 >
b0 =
b0 <
b0 ;
b0 :
b0 9
z8
17
b0 6
15
04
b1000000000000 3
b0 2
b0 1
x0
1/
0.
0-
0,
0+
bx *
bx )
0(
b0 '
1&
1%
bx $
z#
bz "
0!
$end
#1000
1F"
0G"
0n"
1m"
1-#
0.#
b0 L"
b0 M"
b0 t"
b0 u"
0{"
b0 3#
b0 4#
0K"
02#
b0 ,"
b0 *"
b0 -"
b0 +"
b1 2"
b0 ("
b1 o
b1000000000100 3
b1000000000100 T
b1000000000100 i
b1000000000100 n
b1 q
b1 `
b1000000000000 a
0%"
0P"
1&"
1O"
b0 R"
b0 Q"
0o"
0x"
1!"
1w"
b0 z"
b0 y"
00
0}
07#
1V"
16#
b0 9#
b0 8#
b0 '"
b0 <"
b0 8"
0="
b0 >"
b0 J"
0?"
0B"
b0 A"
b0 T"
b0 1#
b0 :"
b0 x
b0 7"
b0 ;"
b0 9"
1)"
b1 @"
1!
#2000
0!
#3000
0u
b0 v
b10 `
b1000000000100 a
1_
b1000000000000 *
b1000000000000 H
b1000000000000 U
b10 o
b1000000001000 3
b1000000001000 T
b1000000001000 i
b1000000001000 n
b10 q
1!
#4000
0!
#5000
b110111 $
b110111 I
b1 v
b110111 y
b11 o
b1000000001100 3
b1000000001100 T
b1000000001100 i
b1000000001100 n
b11 q
b11 `
b1000000001000 a
1]
b1000000000001 *
b1000000000001 H
b1000000000001 U
1!
#6000
0!
#7000
b10 v
b10111 $
b10111 I
b10111 y
b100 `
b1000000001100 a
b1 X
b1000000000010 *
b1000000000010 H
b1000000000010 U
b100 o
b1000000010000 3
b1000000010000 T
b1000000010000 i
b1000000010000 n
b100 q
1!
#8000
0!
#9000
b0 $
b0 I
b11 v
b0 y
b101 o
b1000000010100 3
b1000000010100 T
b1000000010100 i
b1000000010100 n
b101 q
b101 `
b1000000010000 a
b10 X
b1000000000011 *
b1000000000011 H
b1000000000011 U
1!
#10000
0!
#11000
b100 v
b110 `
b1000000010100 a
b11 X
b1000000000100 *
b1000000000100 H
b1000000000100 U
b110 o
b1000000011000 3
b1000000011000 T
b1000000011000 i
b1000000011000 n
b110 q
1!
#12000
0!
#13000
b10000011 $
b10000011 I
b101 v
b10000011 y
b111 o
b1000000011100 3
b1000000011100 T
b1000000011100 i
b1000000011100 n
b111 q
b111 `
b1000000011000 a
b0 X
0]
1O
1-
1[
b1000000000000 G
b1000000000000 V
b1011100110111 2
b1011100110111 K
b1011100110111 d
b1011100110111 M
b1011100110111 Y
1P
1,
1\
b1000000000101 *
b1000000000101 H
b1000000000101 U
1!
#14000
0!
#15000
b100111 $
b100111 I
b100111 y
b1000 `
b1000000011100 a
b1 Z
0_
0O
0-
0[
b1000 o
b1000000100000 3
b1000000100000 T
b1000000100000 i
b1000000100000 n
b1000 q
b1 p
1!
#16000
0!
#17000
b100 v
b1 6
b1 ?
b0 A
b1110 :
b1110 C
b1011100110111 @
b1 j
07
0/
b1011100110111 1
b1011100110111 >
b1011100110111 e
b1011100110111 k
b1001 o
b1000000100100 3
b1000000100100 T
b1000000100100 i
b1000000100100 n
b1001 q
b1001 `
b1000000100000 a
1_
b1000000000100 *
b1000000000100 H
b1000000000100 U
1!
#18000
0!
#19000
b101 v
b10000011 $
b10000011 I
b10000011 y
b1010 `
b1000000100100 a
1]
b1000000000101 *
b1000000000101 H
b1000000000101 U
17
1/
b1010 o
b1000000101000 3
b1000000101000 T
b1000000101000 i
b1000000101000 n
b1010 q
1!
#20000
0!
#21000
b100111 $
b100111 I
b110 v
b100111 y
b1011 o
b1000000101100 3
b1000000101100 T
b1000000101100 i
b1000000101100 n
b1011 q
b1011 `
b1000000101000 a
b1 X
b1000000000110 *
b1000000000110 H
b1000000000110 U
1!
#22000
0!
#23000
b111 v
b111 $
b111 I
b111 y
b1100 `
b1000000101100 a
b10 X
b1000000000111 *
b1000000000111 H
b1000000000111 U
b1100 o
b1000000110000 3
b1000000110000 T
b1000000110000 i
b1000000110000 n
b1100 q
1!
#24000
0!
#25000
b11010 $
b11010 I
b0 v
b11010 y
b1101 o
b1000000110100 3
b1000000110100 T
b1000000110100 i
b1000000110100 n
b1101 q
b1101 `
b1000000110000 a
b11 X
b1000000001000 *
b1000000001000 H
b1000000001000 U
1!
#26000
0!
#27000
b1 v
b110011 $
b110011 I
b110011 y
b1110 `
b1000000110100 a
b0 X
0]
1O
1-
1[
b1000000000100 G
b1000000000100 V
b11010000001110010011110000011 2
b11010000001110010011110000011 K
b11010000001110010011110000011 d
b11010000001110010011110000011 M
b11010000001110010011110000011 Y
b1000000001001 *
b1000000001001 H
b1000000001001 U
b1110 o
b1000000111000 3
b1000000111000 T
b1000000111000 i
b1000000111000 n
b1110 q
1!
#28000
0!
#29000
b1000101 $
b1000101 I
b1000101 y
b1111 o
b1000000111100 3
b1000000111100 T
b1000000111100 i
b1000000111100 n
b1111 q
b10 p
b1111 `
b1000000111000 a
b10 Z
0_
0O
0-
0[
1!
#30000
0!
#31000
b0 v
b1100 A
b1111 :
b1111 C
b1000000000100 9
b1000000000100 B
b110100000 6
b110100000 ?
b1110 ;
b1110 D
b11010000001110010011110000011 @
b10000 `
b1000000111100 a
1_
b1000000001000 *
b1000000001000 H
b1000000001000 U
b10 j
07
0/
b11010000001110010011110000011 1
b11010000001110010011110000011 >
b11010000001110010011110000011 e
b11010000001110010011110000011 k
b1000000000100 '
b1000000000100 =
b1000000000100 h
b1000000000100 m
b0 o
b1000001000000 3
b1000001000000 T
b1000001000000 i
b1000001000000 n
b10000 q
1!
#32000
0!
#33000
b110011 $
b110011 I
b1 v
b110011 y
17
1/
b1 o
b1000001000100 3
b1000001000100 T
b1000001000100 i
b1000001000100 n
b1 q
b10001 `
b1000001000000 a
1]
b1000000001001 *
b1000000001001 H
b1000000001001 U
1!
#34000
0!
#35000
b10 v
b1000101 $
b1000101 I
b1000101 y
b10010 `
b1000001000100 a
b1 X
b1000000001010 *
b1000000001010 H
b1000000001010 U
1.
1l
1!
#36000
0!
#37000
b11110101 $
b11110101 I
b11 v
b11110101 y
b10 X
b1000000001011 *
b1000000001011 H
b1000000001011 U
1!
#38000
0!
#39000
b100 v
b0 $
b0 I
b0 y
b11 X
b1000000001100 *
b1000000001100 H
b1000000001100 U
1!
#40000
0!
#41000
b10011 $
b10011 I
b101 v
b10011 y
b0 X
0]
1O
1-
1[
b1000000001000 G
b1000000001000 V
b111101010100010100110011 2
b111101010100010100110011 K
b111101010100010100110011 d
b111101010100010100110011 M
b111101010100010100110011 Y
b1000000001101 *
b1000000001101 H
b1000000001101 U
1!
#42000
0!
#43000
b101 $
b101 I
b101 y
b11 Z
0_
0O
0-
0[
b11 p
1!
#44000
0!
#45000
b100 v
b100000 A
b1111 <
b1111 E
b1010 :
b1010 C
b1000000001000 9
b1000000001000 B
b0 6
b0 ?
b1010 ;
b1010 D
b111101010100010100110011 @
b11 j
07
0/
b111101010100010100110011 1
b111101010100010100110011 >
b111101010100010100110011 e
b111101010100010100110011 k
b1000000001000 '
b1000000001000 =
b1000000001000 h
b1000000001000 m
1_
b1000000001100 *
b1000000001100 H
b1000000001100 U
1!
#46000
0!
#47000
b101 v
b10011 $
b10011 I
b10011 y
1]
b1000000001101 *
b1000000001101 H
b1000000001101 U
17
1/
0.
0l
b10 o
b1000001001000 3
b1000001001000 T
b1000001001000 i
b1000001001000 n
b10 q
1!
#48000
0!
#49000
b101 $
b101 I
b110 v
b101 y
1.
1l
b10011 `
b1000001001000 a
b1 X
b1000000001110 *
b1000000001110 H
b1000000001110 U
1!
#50000
0!
#51000
b111 v
b11010101 $
b11010101 I
b11010101 y
b10 X
b1000000001111 *
b1000000001111 H
b1000000001111 U
1!
#52000
0!
#53000
b1010 $
b1010 I
b0 v
b1010 y
x&
b11 X
b1000000010000 *
b1000000010000 H
b1000000010000 U
0{
1!
#54000
0!
#55000
b1 v
b100011 $
b100011 I
0&
b100011 y
b10 ^"
06"
b0 X
0]
1O
1-
1[
b1000000001100 G
b1000000001100 V
b1010110101010000010100010011 2
b1010110101010000010100010011 K
b1010110101010000010100010011 d
b1010110101010000010100010011 M
b1010110101010000010100010011 Y
b1000000010001 *
b1000000010001 H
b1000000010001 U
b1 _"
zj"
1!
#56000
0!
#57000
b100000 $
b100000 I
b100000 y
b11 ^"
b100 p
b100 Z
0_
0O
0-
0[
b10 _"
1!
#58000
0!
#59000
b0 v
b10010 A
b10101101 6
b10101101 ?
b1000000001100 9
b1000000001100 B
b0 <
b0 E
b1010110101010000010100010011 @
b100 ^"
1_
b1000000010000 *
b1000000010000 H
b1000000010000 U
b100 j
07
0/
b1010110101010000010100010011 1
b1010110101010000010100010011 >
b1010110101010000010100010011 e
b1010110101010000010100010011 k
b1000000001100 '
b1000000001100 =
b1000000001100 h
b1000000001100 m
b11 _"
1!
#60000
0!
#61000
b100011 $
b100011 I
b1 v
b100011 y
b101 ^"
17
1/
0.
0l
b11 o
b1000001001100 3
b1000001001100 T
b1000001001100 i
b1000001001100 n
b11 q
1]
b1000000010001 *
b1000000010001 H
b1000000010001 U
b100 _"
1!
#62000
0!
#63000
b10 v
b100000 $
b100000 I
b100000 y
b110 ^"
b10100 `
b1000001001100 a
b1 X
b1000000010010 *
b1000000010010 H
b1000000010010 U
1.
1l
b101 _"
1!
#64000
0!
#65000
b10100111 $
b10100111 I
b11 v
b10100111 y
b111 ^"
b10 X
b1000000010011 *
b1000000010011 H
b1000000010011 U
b110 _"
1!
#66000
0!
#67000
b100 v
b11010 $
b11010 I
b11010 y
b1000 ^"
b11 X
b1000000010100 *
b1000000010100 H
b1000000010100 U
b111 _"
1!
#68000
0!
#69000
b1100111 $
b1100111 I
b101 v
b1100111 y
b1001 ^"
b0 X
0]
1O
1-
1[
b1000000010000 G
b1000000010000 V
b11010101001110010000000100011 2
b11010101001110010000000100011 K
b11010101001110010000000100011 d
b11010101001110010000000100011 M
b11010101001110010000000100011 Y
b1000000010101 *
b1000000010101 H
b1000000010101 U
b1000 _"
1!
#70000
0!
#71000
b10000000 $
b10000000 I
b10000000 y
b1010 ^"
b101 Z
0_
0O
0-
0[
b101 p
b1001 _"
1!
#72000
0!
#73000
b100 v
b10001 A
b1010 <
b1010 E
b0 :
b0 C
b1000000010000 9
b1000000010000 B
b0 6
b0 ?
b1110 ;
b1110 D
b11010101001110010000000100011 @
b1011 ^"
b101 j
07
0/
b11010101001110010000000100011 1
b11010101001110010000000100011 >
b11010101001110010000000100011 e
b11010101001110010000000100011 k
b1000000010000 '
b1000000010000 =
b1000000010000 h
b1000000010000 m
1_
b1000000010100 *
b1000000010100 H
b1000000010100 U
b1010 _"
1!
#74000
0!
#75000
b101 v
b1100111 $
b1100111 I
b1100111 y
b1100 ^"
1]
b1000000010101 *
b1000000010101 H
b1000000010101 U
17
1/
0.
0l
b100 o
b1000001010000 3
b1000001010000 T
b1000001010000 i
b1000001010000 n
b100 q
b1011 _"
1!
#76000
0!
#77000
b10000000 $
b10000000 I
b110 v
b10000000 y
b1101 ^"
1.
1l
b10101 `
b1000001010000 a
b1 X
b1000000010110 *
b1000000010110 H
b1000000010110 U
b1100 _"
1!
#78000
0!
#79000
b111 v
b0 $
b0 I
b0 y
b1110 ^"
b10 X
b1000000010111 *
b1000000010111 H
b1000000010111 U
b1101 _"
1!
#80000
0!
#81000
b0 v
b1111 ^"
b11 X
b1000000011000 *
b1000000011000 H
b1000000011000 U
b1110 _"
1!
#82000
0!
#83000
b1 v
b10000011 $
b10000011 I
b10000011 y
b10000 ^"
b0 X
0]
1O
1-
1[
b1000000010100 G
b1000000010100 V
b1000000001100111 2
b1000000001100111 K
b1000000001100111 d
b1000000001100111 M
b1000000001100111 Y
b1000000011001 *
b1000000011001 H
b1000000011001 U
b1111 _"
1!
#84000
0!
#85000
b1000111 $
b1000111 I
b1000111 y
b10001 ^"
b110 p
b110 Z
0_
0O
0-
0[
b10000 _"
1!
#86000
0!
#87000
b0 v
b11 A
b1000000010100 9
b1000000010100 B
b0 <
b0 E
b1 ;
b1 D
b1000000001100111 @
b10010 ^"
1_
b1000000011000 *
b1000000011000 H
b1000000011000 U
b110 j
07
0/
b1000000001100111 1
b1000000001100111 >
b1000000001100111 e
b1000000001100111 k
b1000000010100 '
b1000000010100 =
b1000000010100 h
b1000000010100 m
b10001 _"
1!
#88000
0!
#89000
b10000011 $
b10000011 I
b1 v
b10000011 y
b10011 ^"
17
1/
0.
0l
b101 o
b1000001010100 3
b1000001010100 T
b1000001010100 i
b1000001010100 n
b101 q
1]
b1000000011001 *
b1000000011001 H
b1000000011001 U
b10010 _"
1!
#90000
0!
#91000
b10 v
b1000111 $
b1000111 I
b1000111 y
b10100 ^"
b10110 `
b1000001010100 a
b1 X
b1000000011010 *
b1000000011010 H
b1000000011010 U
1.
1l
b10011 _"
1!
#92000
0!
#93000
b101 $
b101 I
b11 v
b101 y
b10101 ^"
b10 X
b1000000011011 *
b1000000011011 H
b1000000011011 U
b10100 _"
1!
#94000
0!
#95000
b100 v
b0 $
b0 I
b0 y
b10110 ^"
b11 X
b1000000011100 *
b1000000011100 H
b1000000011100 U
b10101 _"
1!
#96000
0!
#97000
b1100011 $
b1100011 I
b101 v
b1100011 y
b10111 ^"
b0 X
0]
1O
1-
1[
b1000000011000 G
b1000000011000 V
b1010100011110000011 2
b1010100011110000011 K
b1010100011110000011 d
b1010100011110000011 M
b1010100011110000011 Y
b1000000011101 *
b1000000011101 H
b1000000011101 U
b10110 _"
1!
#98000
0!
#99000
b10000010 $
b10000010 I
b10000010 y
b11000 ^"
b111 Z
0_
0O
0-
0[
b111 p
b10111 _"
1!
#100000
0!
#101000
b100 v
b1101 A
b1111 :
b1111 C
b1000000011000 9
b1000000011000 B
b1010 ;
b1010 D
b1010100011110000011 @
b11001 ^"
b111 j
07
0/
b1010100011110000011 1
b1010100011110000011 >
b1010100011110000011 e
b1010100011110000011 k
b1000000011000 '
b1000000011000 =
b1000000011000 h
b1000000011000 m
1_
b1000000011100 *
b1000000011100 H
b1000000011100 U
b11000 _"
1!
#102000
0!
#103000
b101 v
b1100011 $
b1100011 I
b1100011 y
b11010 ^"
1]
b1000000011101 *
b1000000011101 H
b1000000011101 U
17
1/
0.
0l
b110 o
b1000001011000 3
b1000001011000 T
b1000001011000 i
b1000001011000 n
b110 q
b11001 _"
1!
#104000
0!
#105000
b10000010 $
b10000010 I
b110 v
b10000010 y
b11011 ^"
1.
1l
b10111 `
b1000001011000 a
b1 X
b1000000011110 *
b1000000011110 H
b1000000011110 U
b11010 _"
1!
#106000
0!
#107000
b111 v
b111 $
b111 I
b111 y
b11100 ^"
b10 X
b1000000011111 *
b1000000011111 H
b1000000011111 U
b11011 _"
1!
#108000
0!
#109000
b10 $
b10 I
b0 v
b10 y
b11101 ^"
b11 X
b1000000100000 *
b1000000100000 H
b1000000100000 U
b11100 _"
1!
#110000
0!
#111000
b1 v
b110111 $
b110111 I
b110111 y
b11110 ^"
b0 X
0]
1O
1-
1[
b1000000011100 G
b1000000011100 V
b10000001111000001001100011 2
b10000001111000001001100011 K
b10000001111000001001100011 d
b10000001111000001001100011 M
b10000001111000001001100011 Y
b1000000100001 *
b1000000100001 H
b1000000100001 U
b11101 _"
1!
#112000
0!
#113000
b10111 $
b10111 I
b10111 y
b11111 ^"
b1000 p
b1000 Z
0_
0O
0-
0[
b11110 _"
1!
#114000
0!
