riscv/src/testbench/cpu_with_instr_check/test.vcd
$date
	Sat Nov 20 18:02:35 2021
$end
$version
	Icarus Verilog
$end
$timescale
	1ps
$end
$scope module testbench $end
$scope module top $end
$scope module cpu0 $end
$var wire 1 ! clk_in $end
$var wire 32 " dbgreg_dout [31:0] $end
$var wire 1 # is_receive_from_iq_to_fc $end
$var wire 8 $ mem_din [7:0] $end
$var wire 1 % rdy_in $end
$var wire 1 & rst_in $end
$var wire 1 ' mem_wr $end
$var wire 8 ( mem_dout [7:0] $end
$var wire 32 ) mem_a [31:0] $end
$var wire 1 * is_stall_from_fc_to_iq $end
$var wire 1 + is_instr_from_fc_to_iq $end
$var wire 1 , is_finish_from_fc_to_iq $end
$var wire 1 - is_empty_from_iq_to_fc $end
$var wire 1 . io_buffer_full $end
$var wire 32 / instr_from_fc_to_iq [31:0] $end
$var wire 32 0 addr_from_iq_to_fc [31:0] $end
$var reg 1 1 true $end
$scope module mfc $end
$var wire 32 2 addr_from_slb [31:0] $end
$var wire 32 3 addr_to_iq [31:0] $end
$var wire 32 4 addr_to_ram [31:0] $end
$var wire 1 ! clk $end
$var wire 8 5 data_from_ram [7:0] $end
$var wire 32 6 data_from_slb [31:0] $end
$var wire 32 7 data_to_iq [31:0] $end
$var wire 8 8 data_to_ram [7:0] $end
$var wire 32 9 data_to_slb [31:0] $end
$var wire 1 1 is_empty_from_slb $end
$var wire 1 : is_exception_from_rob $end
$var wire 1 , is_finish_to_iq $end
$var wire 1 ; is_finish_to_slb $end
$var wire 1 + is_instr_to_iq $end
$var wire 1 < is_instr_to_slb $end
$var wire 1 # is_receive_from_iq $end
$var wire 1 = is_receive_from_slb $end
$var wire 1 * is_stall_to_iq $end
$var wire 1 > is_stall_to_slb $end
$var wire 1 ? is_store_from_slb $end
$var wire 1 ' is_store_to_ram $end
$var wire 1 & rst $end
$var wire 1 - is_empty_from_iq $end
$var wire 32 @ addr_from_iq [31:0] $end
$var reg 32 A addr [31:0] $end
$var reg 32 B addr_iq [31:0] $end
$var reg 8 C char [7:0] $end
$var reg 2 D cnt [1:0] $end
$var reg 32 E data [31:0] $end
$var reg 5 F head_pointer [4:0] $end
$var reg 1 G is_finish $end
$var reg 1 H is_instr $end
$var reg 1 I is_past $end
$var reg 1 J is_stall $end
$var reg 1 K is_start $end
$var reg 1 ' is_store $end
$var reg 5 L tail_pointer [4:0] $end
$var reg 32 M testAddr [31:0] $end
$var integer 32 N i [31:0] $end
$upscope $end
$scope module miq $end
$var wire 1 O addr_from_fc $end
$var wire 1 ! clk $end
$var wire 32 P instr_from_fc [31:0] $end
$var wire 32 Q instr_to_dc [31:0] $end
$var wire 1 R is_empty_to_dc $end
$var wire 1 - is_empty_to_fc $end
$var wire 1 S is_exception_from_rob $end
$var wire 1 , is_finish_from_fc $end
$var wire 1 + is_instr_from_fc $end
$var wire 1 # is_receive_to_fc $end
$var wire 1 * is_stall_from_fc $end
$var wire 1 T is_stall_from_rob $end
$var wire 32 U pc_from_rob [31:0] $end
$var wire 32 V pc_to_dc [31:0] $end
$var wire 32 W pc_to_fc [31:0] $end
$var wire 1 & rst $end
$var reg 4 X head_pointer [3:0] $end
$var reg 32 Y instr_dc [31:0] $end
$var reg 1 Z is_empty_dc $end
$var reg 1 [ is_empty_fc $end
$var reg 32 \ pc_dc [31:0] $end
$var reg 32 ] pc_fc [31:0] $end
$var reg 4 ^ store_pointer [3:0] $end
$var reg 4 _ tail_pointer [3:0] $end
$var integer 32 ` i [31:0] $end
$upscope $end
$upscope $end
$upscope $end
$upscope $end
$scope module testbench $end
$scope module top $end
$scope module hci0 $end
$var wire 1 ! clk $end
$var wire 32 a cpu_dbgreg_din [31:0] $end
$var wire 8 b io_din [7:0] $end
$var wire 1 c io_en $end
$var wire 1 . io_full $end
$var wire 3 d io_sel [2:0] $end
$var wire 1 e io_wr $end
$var wire 17 f ram_a [16:0] $end
$var wire 8 g ram_din [7:0] $end
$var wire 8 h ram_dout [7:0] $end
$var wire 1 i rst $end
$var wire 1 j rx $end
$var wire 1 k tx_full $end
$var wire 1 l tx $end
$var wire 1 m rx_empty $end
$var wire 8 n rd_data [7:0] $end
$var wire 1 o parity_err $end
$var wire 8 p io_in_rd_data [7:0] $end
$var wire 1 q io_in_full $end
$var wire 1 r io_in_empty $end
$var wire 8 s io_dout [7:0] $end
$var wire 32 t d_cpu_cycle_cnt [31:0] $end
$var wire 1 u active $end
$var reg 17 v d_addr [16:0] $end
$var reg 3 w d_decode_cnt [2:0] $end
$var reg 2 x d_err_code [1:0] $end
$var reg 17 y d_execute_cnt [16:0] $end
$var reg 8 z d_io_dout [7:0] $end
$var reg 8 { d_io_in_wr_data [7:0] $end
$var reg 1 | d_io_in_wr_en $end
$var reg 1 } d_program_finish $end
$var reg 5 ~ d_state [4:0] $end
$var reg 8 !" d_tx_data [7:0] $end
$var reg 1 "" d_wr_en $end
$var reg 1 #" io_in_rd_en $end
$var reg 1 $" program_finish $end
$var reg 17 %" q_addr [16:0] $end
$var reg 32 &" q_cpu_cycle_cnt [31:0] $end
$var reg 3 '" q_decode_cnt [2:0] $end
$var reg 2 (" q_err_code [1:0] $end
$var reg 17 )" q_execute_cnt [16:0] $end
$var reg 8 *" q_io_dout [7:0] $end
$var reg 1 +" q_io_en $end
$var reg 8 ," q_io_in_wr_data [7:0] $end
$var reg 1 -" q_io_in_wr_en $end
$var reg 5 ." q_state [4:0] $end
$var reg 8 /" q_tx_data [7:0] $end
$var reg 1 0" q_wr_en $end
$var reg 1 1" ram_wr $end
$var reg 1 2" rd_en $end
$scope module io_in_fifo $end
$var wire 10 3" addr_bits_wide_1 [9:0] $end
$var wire 1 ! clk $end
$var wire 1 4" d_empty $end
$var wire 1 5" d_full $end
$var wire 1 r empty $end
$var wire 1 q full $end
$var wire 8 6" rd_data [7:0] $end
$var wire 1 #" rd_en $end
$var wire 1 7" rd_en_prot $end
$var wire 1 i reset $end
$var wire 8 8" wr_data [7:0] $end
$var wire 1 -" wr_en $end
$var wire 1 9" wr_en_prot $end
$var wire 10 :" d_wr_ptr [9:0] $end
$var wire 10 ;" d_rd_ptr [9:0] $end
$var wire 8 <" d_data [7:0] $end
$var reg 1 =" q_empty $end
$var reg 1 >" q_full $end
$var reg 10 ?" q_rd_ptr [9:0] $end
$var reg 10 @" q_wr_ptr [9:0] $end
$upscope $end
$scope module uart_blk $end
$var wire 1 ! clk $end
$var wire 1 A" d_rx_parity_err $end
$var wire 1 o parity_err $end
$var wire 1 2" rd_en $end
$var wire 1 i reset $end
$var wire 1 j rx $end
$var wire 8 B" tx_data [7:0] $end
$var wire 1 0" wr_en $end
$var wire 1 k tx_full $end
$var wire 8 C" tx_fifo_rd_data [7:0] $end
$var wire 1 D" tx_fifo_empty $end
$var wire 1 E" tx_done_tick $end
$var wire 1 l tx $end
$var wire 1 F" rx_parity_err $end
$var wire 8 G" rx_fifo_wr_data [7:0] $end
$var wire 1 m rx_empty $end
$var wire 1 H" rx_done_tick $end
$var wire 8 I" rx_data [7:0] $end
$var wire 1 J" baud_clk_tick $end
$var reg 1 K" q_rx_parity_err $end
$scope module uart_baud_clk_blk $end
$var wire 1 ! clk $end
$var wire 1 i reset $end
$var wire 16 L" d_cnt [15:0] $end
$var wire 1 J" baud_clk_tick $end
$var reg 16 M" q_cnt [15:0] $end
$upscope $end
$scope module uart_rx_blk $end
$var wire 1 J" baud_clk_tick $end
$var wire 1 ! clk $end
$var wire 1 i reset $end
$var wire 1 j rx $end
$var wire 8 N" rx_data [7:0] $end
$var wire 1 H" rx_done_tick $end
$var wire 1 F" parity_err $end
$var reg 8 O" d_data [7:0] $end
$var reg 3 P" d_data_bit_idx [2:0] $end
$var reg 1 Q" d_done_tick $end
$var reg 4 R" d_oversample_tick_cnt [3:0] $end
$var reg 1 S" d_parity_err $end
$var reg 5 T" d_state [4:0] $end
$var reg 8 U" q_data [7:0] $end
$var reg 3 V" q_data_bit_idx [2:0] $end
$var reg 1 H" q_done_tick $end
$var reg 4 W" q_oversample_tick_cnt [3:0] $end
$var reg 1 F" q_parity_err $end
$var reg 1 X" q_rx $end
$var reg 5 Y" q_state [4:0] $end
$upscope $end
$scope module uart_rx_fifo $end
$var wire 3 Z" addr_bits_wide_1 [2:0] $end
$var wire 1 ! clk $end
$var wire 1 [" d_empty $end
$var wire 1 \" d_full $end
$var wire 1 m empty $end
$var wire 1 ]" full $end
$var wire 8 ^" rd_data [7:0] $end
$var wire 1 2" rd_en $end
$var wire 1 _" rd_en_prot $end
$var wire 1 i reset $end
$var wire 8 `" wr_data [7:0] $end
$var wire 1 H" wr_en $end
$var wire 1 a" wr_en_prot $end
$var wire 3 b" d_wr_ptr [2:0] $end
$var wire 3 c" d_rd_ptr [2:0] $end
$var wire 8 d" d_data [7:0] $end
$var reg 1 e" q_empty $end
$var reg 1 f" q_full $end
$var reg 3 g" q_rd_ptr [2:0] $end
$var reg 3 h" q_wr_ptr [2:0] $end
$upscope $end
$scope module uart_tx_blk $end
$var wire 1 J" baud_clk_tick $end
$var wire 1 ! clk $end
$var wire 1 i reset $end
$var wire 1 l tx $end
$var wire 1 E" tx_done_tick $end
$var wire 1 i" tx_start $end
$var wire 8 j" tx_data [7:0] $end
$var reg 4 k" d_baud_clk_tick_cnt [3:0] $end
$var reg 8 l" d_data [7:0] $end
$var reg 3 m" d_data_bit_idx [2:0] $end
$var reg 1 n" d_parity_bit $end
$var reg 5 o" d_state [4:0] $end
$var reg 1 p" d_tx $end
$var reg 1 q" d_tx_done_tick $end
$var reg 4 r" q_baud_clk_tick_cnt [3:0] $end
$var reg 8 s" q_data [7:0] $end
$var reg 3 t" q_data_bit_idx [2:0] $end
$var reg 1 u" q_parity_bit $end
$var reg 5 v" q_state [4:0] $end
$var reg 1 w" q_tx $end
$var reg 1 E" q_tx_done_tick $end
$upscope $end
$scope module uart_tx_fifo $end
$var wire 10 x" addr_bits_wide_1 [9:0] $end
$var wire 1 ! clk $end
$var wire 1 y" d_empty $end
$var wire 1 z" d_full $end
$var wire 1 D" empty $end
$var wire 1 k full $end
$var wire 8 {" rd_data [7:0] $end
$var wire 1 E" rd_en $end
$var wire 1 |" rd_en_prot $end
$var wire 1 i reset $end
$var wire 8 }" wr_data [7:0] $end
$var wire 1 0" wr_en $end
$var wire 1 ~" wr_en_prot $end
$var wire 10 !# d_wr_ptr [9:0] $end
$var wire 10 "# d_rd_ptr [9:0] $end
$var wire 8 ## d_data [7:0] $end
$var reg 1 $# q_empty $end
$var reg 1 %# q_full $end
$var reg 10 &# q_rd_ptr [9:0] $end
$var reg 10 '# q_wr_ptr [9:0] $end
$upscope $end
$upscope $end
$upscope $end
$upscope $end
$upscope $end
$scope module testbench $end
$scope module top $end
$scope module hci0 $end
$scope module io_in_fifo $end
$upscope $end
$scope module uart_blk $end
$scope module uart_baud_clk_blk $end
$upscope $end
$scope module uart_rx_blk $end
$upscope $end
$scope module uart_rx_fifo $end
$upscope $end
$scope module uart_tx_blk $end
$upscope $end
$scope module uart_tx_fifo $end
$upscope $end
$upscope $end
$upscope $end
$upscope $end
$upscope $end
$scope module testbench $end
$scope module top $end
$scope module hci0 $end
$scope module io_in_fifo $end
$upscope $end
$scope module uart_blk $end
$scope module uart_baud_clk_blk $end
$upscope $end
$scope module uart_rx_blk $end
$upscope $end
$scope module uart_rx_fifo $end
$upscope $end
$scope module uart_tx_blk $end
$upscope $end
$scope module uart_tx_fifo $end
$upscope $end
$upscope $end
$upscope $end
$upscope $end
$upscope $end
$enddefinitions $end
#0
$dumpvars
bx '#
bx &#
x%#
x$#
bx ##
bx "#
bx !#
x~"
bx }"
0|"
bx {"
xz"
xy"
b1 x"
1w"
b1 v"
0u"
b0 t"
b0 s"
b0 r"
0q"
1p"
b1 o"
0n"
b0 m"
b0 l"
b0 k"
bx j"
xi"
bx h"
bx g"
xf"
xe"
bx d"
bx c"
bx b"
0a"
b0 `"
0_"
bx ^"
x]"
x\"
x["
b1 Z"
b1 Y"
1X"
b0 W"
b0 V"
b0 U"
b1 T"
0S"
b0 R"
0Q"
b0 P"
b0 O"
b0 N"
b0 M"
b1 L"
0K"
0J"
bx I"
0H"
b0 G"
0F"
0E"
xD"
bx C"
bx B"
0A"
bx @"
bx ?"
x>"
x="
bx <"
bx ;"
bx :"
x9"
bx 8"
07"
bx 6"
x5"
x4"
b1 3"
02"
01"
x0"
bx /"
bx ."
x-"
bx ,"
x+"
bx *"
bx )"
bx ("
bx '"
bx &"
bx %"
x$"
0#"
0""
b0 !"
bx ~
0}
0|
b0 {
b0 z
bx y
bx x
bx w
bx v
xu
bx t
bx s
xr
xq
bx p
0o
bx n
xm
1l
xk
zj
1i
bx h
bx g
bx f
0e
bx d
xc
bx b
bz a
b10000 `
b0 _
b0 ^
b1000000000000 ]
b0 \
0[
0Z
bx Y
b0 X
b1000000000000 W
b0 V
bz U
zT
zS
0R
bx Q
b0 P
zO
b11111 N
bx M
b0 L
0K
0J
0I
0H
0G
b0 F
b0 E
b0 D
bx C
bx B
bx A
b1000000000000 @
z?
0>
z=
0<
0;
z:
b0 9
bx 8
b0 7
bz 6
bx 5
bx 4
bx 3
bz 2
11
b1000000000000 0
b0 /
x.
0-
0,
0+
0*
bx )
bx (
0'
1&
1%
bx $
z#
bz "
0!
$end
#1000
14"
05"
0\"
1["
1y"
0z"
b0 :"
b0 ;"
b0 b"
b0 c"
0i"
b0 !#
b0 "#
09"
0~"
b0 x
b0 v
b0 y
b0 w
b1 ~
b0 t
1R
1Z
b1 ^
b1000000000100 0
b1000000000100 @
b1000000000100 W
b1000000000100 ]
b1 L
b1000000000000 M
0q
0>"
1r
1="
b0 @"
b0 ?"
0]"
0f"
1m
1e"
b0 h"
b0 g"
0.
0k
0%#
1D"
1$#
b0 '#
b0 &#
b0 s
b0 *"
b0 &"
0+"
b0 ,"
b0 8"
0-"
00"
b0 /"
b0 B"
b0 }"
b0 ("
b0 f
b0 %"
b0 )"
b0 '"
1u
b1 ."
1!
#2000
0!
#3000
0c
b0 d
b10 L
b1000000000100 M
1K
b1000000000000 )
b1000000000000 4
b1000000000000 A
b10 ^
b1000000001000 0
b1000000001000 @
b1000000001000 W
b1000000001000 ]
1!
#4000
0!
#5000
b110111 $
b110111 5
b1 d
b110111 g
b11 ^
b1000000001100 0
b1000000001100 @
b1000000001100 W
b1000000001100 ]
b11 L
b1000000001000 M
1I
b1000000000001 )
b1000000000001 4
b1000000000001 A
1!
#6000
0!
#7000
b10 d
b10111 $
b10111 5
b10111 g
b100 L
b1000000001100 M
b1 D
b1000000000010 )
b1000000000010 4
b1000000000010 A
b100 ^
b1000000010000 0
b1000000010000 @
b1000000010000 W
b1000000010000 ]
1!
#8000
0!
#9000
b0 $
b0 5
b11 d
b0 g
b101 ^
b1000000010100 0
b1000000010100 @
b1000000010100 W
b1000000010100 ]
b101 L
b1000000010000 M
b10 D
b1000000000011 )
b1000000000011 4
b1000000000011 A
1!
#10000
0!
#11000
b100 d
b110 L
b1000000010100 M
b11 D
b1000000000100 )
b1000000000100 4
b1000000000100 A
b110 ^
b1000000011000 0
b1000000011000 @
b1000000011000 W
b1000000011000 ]
1!
#12000
0!
#13000
b10000011 $
b10000011 5
b101 d
b10000011 g
b111 ^
b1000000011100 0
b1000000011100 @
b1000000011100 W
b1000000011100 ]
b111 L
b1000000011000 M
b0 D
0I
1;
1,
1G
b1000000000000 3
b1000000000000 B
b110111000101110000000000000000 /
b110111000101110000000000000000 7
b110111000101110000000000000000 P
b110111000101110000000000000000 9
b110111000101110000000000000000 E
1<
1+
1H
b1000000000101 )
b1000000000101 4
b1000000000101 A
1!
#14000
0!
#15000
b100111 $
b100111 5
b100111 g
b1000 L
b1000000011100 M
b1 F
0K
0;
0,
0G
b1000 ^
b1000000100000 0
b1000000100000 @
b1000000100000 W
b1000000100000 ]
b1 _
1!
#16000
0!
#17000
b100 d
b1001 ^
b1000000100100 0
b1000000100100 @
b1000000100100 W
b1000000100100 ]
b1001 L
b1000000100000 M
1K
b1000000000100 )
b1000000000100 4
b1000000000100 A
1!
#18000
0!
#19000
b101 d
b10000011 $
b10000011 5
b10000011 g
b1010 L
b1000000100100 M
1I
b1000000000101 )
b1000000000101 4
b1000000000101 A
b1010 ^
b1000000101000 0
b1000000101000 @
b1000000101000 W
b1000000101000 ]
1!
#20000
0!
#21000
b100111 $
b100111 5
b110 d
b100111 g
b1011 ^
b1000000101100 0
b1000000101100 @
b1000000101100 W
b1000000101100 ]
b1011 L
b1000000101000 M
b1 D
b1000000000110 )
b1000000000110 4
b1000000000110 A
1!
#22000
0!
#23000
b111 d
b111 $
b111 5
b111 g
b1100 L
b1000000101100 M
b10 D
b1000000000111 )
b1000000000111 4
b1000000000111 A
b1100 ^
b1000000110000 0
b1000000110000 @
b1000000110000 W
b1000000110000 ]
1!
#24000
0!
#25000
b11010 $
b11010 5
b0 d
b11010 g
b1101 ^
b1000000110100 0
b1000000110100 @
b1000000110100 W
b1000000110100 ]
b1101 L
b1000000110000 M
b11 D
b1000000001000 )
b1000000001000 4
b1000000001000 A
1!
#26000
0!
#27000
b1 d
b110011 $
b110011 5
b110011 g
b1110 L
b1000000110100 M
b0 D
0I
1;
1,
1G
b1000000000100 3
b1000000000100 B
b10000011001001110000011100011010 /
b10000011001001110000011100011010 7
b10000011001001110000011100011010 P
b10000011001001110000011100011010 9
b10000011001001110000011100011010 E
b1000000001001 )
b1000000001001 4
b1000000001001 A
b1110 ^
b1000000111000 0
b1000000111000 @
b1000000111000 W
b1000000111000 ]
1!
#28000
0!
#29000
b1000101 $
b1000101 5
b1000101 g
b1111 ^
b1000000111100 0
b1000000111100 @
b1000000111100 W
b1000000111100 ]
b10 _
b1111 L
b1000000111000 M
b10 F
0K
0;
0,
0G
1!
#30000
0!
#31000
b0 d
b10000 L
b1000000111100 M
1K
b1000000001000 )
b1000000001000 4
b1000000001000 A
b0 ^
b1000001000000 0
b1000001000000 @
b1000001000000 W
b1000001000000 ]
1!
#32000
0!
#33000
b110011 $
b110011 5
b1 d
b110011 g
b1 ^
b1000001000100 0
b1000001000100 @
b1000001000100 W
b1000001000100 ]
b10001 L
b1000001000000 M
1I
b1000000001001 )
b1000000001001 4
b1000000001001 A
1!
#34000
0!
#35000
b10 d
b1000101 $
b1000101 5
b1000101 g
b10010 L
b1000001000100 M
b1 D
b1000000001010 )
b1000000001010 4
b1000000001010 A
b10 ^
b1000001001000 0
b1000001001000 @
b1000001001000 W
b1000001001000 ]
1!
#36000
0!
#37000
b11110101 $
b11110101 5
b11 d
b11110101 g
b11 ^
b1000001001100 0
b1000001001100 @
b1000001001100 W
b1000001001100 ]
b10011 L
b1000001001000 M
b10 D
b1000000001011 )
b1000000001011 4
b1000000001011 A
1!
#38000
0!
#39000
b100 d
b0 $
b0 5
b0 g
b10100 L
b1000001001100 M
b11 D
b1000000001100 )
b1000000001100 4
b1000000001100 A
b100 ^
b1000001010000 0
b1000001010000 @
b1000001010000 W
b1000001010000 ]
1!
#40000
0!
#41000
b10011 $
b10011 5
b101 d
b10011 g
b101 ^
b1000001010100 0
b1000001010100 @
b1000001010100 W
b1000001010100 ]
b10101 L
b1000001010000 M
b0 D
0I
1;
1,
1G
b1000000001000 3
b1000000001000 B
b110011010001011111010100000000 /
b110011010001011111010100000000 7
b110011010001011111010100000000 P
b110011010001011111010100000000 9
b110011010001011111010100000000 E
b1000000001101 )
b1000000001101 4
b1000000001101 A
1!
#42000
0!
#43000
b101 $
b101 5
b101 g
b10110 L
b1000001010100 M
b11 F
0K
0;
0,
0G
b110 ^
b1000001011000 0
b1000001011000 @
b1000001011000 W
b1000001011000 ]
b11 _
1!
#44000
0!
#45000
b100 d
b111 ^
b1000001011100 0
b1000001011100 @
b1000001011100 W
b1000001011100 ]
b10111 L
b1000001011000 M
1K
b1000000001100 )
b1000000001100 4
b1000000001100 A
1!
#46000
0!
#47000
b101 d
b10011 $
b10011 5
b10011 g
b11000 L
b1000001011100 M
1I
b1000000001101 )
b1000000001101 4
b1000000001101 A
b1000 ^
b1000001100000 0
b1000001100000 @
b1000001100000 W
b1000001100000 ]
1!
#48000
0!
#49000
b101 $
b101 5
b110 d
b101 g
b1001 ^
b1000001100100 0
b1000001100100 @
b1000001100100 W
b1000001100100 ]
b11001 L
b1000001100000 M
b1 D
b1000000001110 )
b1000000001110 4
b1000000001110 A
1!
#50000
0!
#51000
b111 d
b11010101 $
b11010101 5
b11010101 g
b11010 L
b1000001100100 M
b10 D
b1000000001111 )
b1000000001111 4
b1000000001111 A
b1010 ^
b1000001101000 0
b1000001101000 @
b1000001101000 W
b1000001101000 ]
1!
#52000
0!
#53000
b1010 $
b1010 5
b0 d
b1010 g
x&
b1011 ^
b1000001101100 0
b1000001101100 @
b1000001101100 W
b1000001101100 ]
b11011 L
b1000001101000 M
b11 D
b1000000010000 )
b1000000010000 4
b1000000010000 A
0i
1!
#54000
0!
#55000
b1 d
b100011 $
b100011 5
0&
b100011 g
b10 L"
0$"
b11100 L
b1000001101100 M
b0 D
0I
1;
1,
1G
b1000000001100 3
b1000000001100 B
b10011000001011101010100001010 /
b10011000001011101010100001010 7
b10011000001011101010100001010 P
b10011000001011101010100001010 9
b10011000001011101010100001010 E
b1000000010001 )
b1000000010001 4
b1000000010001 A
b1100 ^
b1000001110000 0
b1000001110000 @
b1000001110000 W
b1000001110000 ]
b1 M"
zX"
1!
#56000
0!
#57000
b100000 $
b100000 5
b100000 g
b11 L"
b1101 ^
b1000001110100 0
b1000001110100 @
b1000001110100 W
b1000001110100 ]
b100 _
b11101 L
b1000001110000 M
b100 F
0K
0;
0,
0G
b10 M"
1!
#58000
0!
#59000
b0 d
b100 L"
b11110 L
b1000001110100 M
1K
b1000000010000 )
b1000000010000 4
b1000000010000 A
b1110 ^
b1000001111000 0
b1000001111000 @
b1000001111000 W
b1000001111000 ]
b11 M"
1!
#60000
0!
#61000
b100011 $
b100011 5
b1 d
b100011 g
b101 L"
b1111 ^
b1000001111100 0
b1000001111100 @
b1000001111100 W
b1000001111100 ]
b11111 L
b1000001111000 M
1I
b1000000010001 )
b1000000010001 4
b1000000010001 A
b100 M"
1!
#62000
0!
#63000
b10 d
b100000 $
b100000 5
b100000 g
b110 L"
b0 L
b1000001111100 M
b1 D
b1000000010010 )
b1000000010010 4
b1000000010010 A
b0 ^
b1000010000000 0
b1000010000000 @
b1000010000000 W
b1000010000000 ]
b101 M"
1!
#64000
0!
#65000
b10100111 $
b10100111 5
b11 d
b10100111 g
b111 L"
b1 ^
b1000010000100 0
b1000010000100 @
b1000010000100 W
b1000010000100 ]
b1 L
b1000010000000 M
b10 D
b1000000010011 )
b1000000010011 4
b1000000010011 A
b110 M"
1!
#66000
0!
#67000
b100 d
b11010 $
b11010 5
b11010 g
b1000 L"
1>
1*
1J
b11 D
b1000000010100 )
b1000000010100 4
b1000000010100 A
b10 ^
b1000010001000 0
b1000010001000 @
b1000010001000 W
b1000010001000 ]
b111 M"
1!
#68000
0!
#69000
b1100111 $
b1100111 5
b101 d
b1100111 g
b1001 L"
1-
1[
b0 D
0I
1;
1,
1G
b1000000010000 3
b1000000010000 B
b100011001000001010011100011010 /
b100011001000001010011100011010 7
b100011001000001010011100011010 P
b100011001000001010011100011010 9
b100011001000001010011100011010 E
b1000000010101 )
b1000000010101 4
b1000000010101 A
b1000 M"
1!
#70000
0!
#71000
b10000000 $
b10000000 5
b10000000 g
b1010 L"
b101 F
0K
0;
0,
0G
b101 _
b1001 M"
1!
#72000
0!
#73000
b100 d
b1011 L"
0>
0*
0J
1K
b1000000010100 )
b1000000010100 4
b1000000010100 A
b1010 M"
1!
#74000
0!
#75000
b101 d
b1100111 $
b1100111 5
b1100111 g
b1100 L"
1I
b1000000010101 )
b1000000010101 4
b1000000010101 A
0-
0[
b11 ^
b1000010001100 0
b1000010001100 @
b1000010001100 W
b1000010001100 ]
b1011 M"
1!
#76000
0!
#77000
b10000000 $
b10000000 5
b110 d
b10000000 g
b1101 L"
b100 ^
b1000010010000 0
b1000010010000 @
b1000010010000 W
b1000010010000 ]
b10 L
b1000010001100 M
b1 D
b1000000010110 )
b1000000010110 4
b1000000010110 A
b1100 M"
1!
#78000
0!
#79000
b111 d
b0 $
b0 5
b0 g
b1110 L"
1>
1*
1J
b10 D
b1000000010111 )
b1000000010111 4
b1000000010111 A
b101 ^
b1000010010100 0
b1000010010100 @
b1000010010100 W
b1000010010100 ]
b1101 M"
1!
#80000
0!
#81000
b0 d
b1111 L"
1-
1[
b11 D
b1000000011000 )
b1000000011000 4
b1000000011000 A
b1110 M"
1!
#82000
0!
#83000
b1 d
b10000011 $
b10000011 5
b10000011 g
b10000 L"
b0 D
0I
1;
1,
1G
b1000000010100 3
b1000000010100 B
b1100111100000000000000000000000 /
b1100111100000000000000000000000 7
b1100111100000000000000000000000 P
b1100111100000000000000000000000 9
b1100111100000000000000000000000 E
b1000000011001 )
b1000000011001 4
b1000000011001 A
b1111 M"
1!
#84000
0!
#85000
b1000111 $
b1000111 5
b1000111 g
b10001 L"
b110 _
b110 F
0K
0;
0,
0G
b10000 M"
1!
#86000
0!
#87000
b0 d
b10010 L"
0>
0*
0J
1K
b1000000011000 )
b1000000011000 4
b1000000011000 A
b10001 M"
1!
#88000
0!
#89000
b10000011 $
b10000011 5
b1 d
b10000011 g
b10011 L"
0-
0[
b110 ^
b1000010011000 0
b1000010011000 @
b1000010011000 W
b1000010011000 ]
1I
b1000000011001 )
b1000000011001 4
b1000000011001 A
b10010 M"
1!
#90000
0!
#91000
b10 d
b1000111 $
b1000111 5
b1000111 g
b10100 L"
b11 L
b1000010011000 M
b1 D
b1000000011010 )
b1000000011010 4
b1000000011010 A
b111 ^
b1000010011100 0
b1000010011100 @
b1000010011100 W
b1000010011100 ]
b10011 M"
1!
#92000
0!
#93000
b101 $
b101 5
b11 d
b101 g
b10101 L"
b1000 ^
b1000010100000 0
b1000010100000 @
b1000010100000 W
b1000010100000 ]
1>
1*
1J
b10 D
b1000000011011 )
b1000000011011 4
b1000000011011 A
b10100 M"
1!
#94000
0!
#95000
b100 d
b0 $
b0 5
b0 g
b10110 L"
b11 D
b1000000011100 )
b1000000011100 4
b1000000011100 A
1-
1[
b10101 M"
1!
#96000
0!
#97000
b1100011 $
b1100011 5
b101 d
b1100011 g
b10111 L"
b0 D
0I
1;
1,
1G
b1000000011000 3
b1000000011000 B
b10000011010001110000010100000000 /
b10000011010001110000010100000000 7
b10000011010001110000010100000000 P
b10000011010001110000010100000000 9
b10000011010001110000010100000000 E
b1000000011101 )
b1000000011101 4
b1000000011101 A
b10110 M"
1!
#98000
0!
#99000
b10000010 $
b10000010 5
b10000010 g
b11000 L"
b111 F
0K
0;
0,
0G
b111 _
b10111 M"
1!
#100000
0!
#101000
b100 d
b11001 L"
0>
0*
0J
1K
b1000000011100 )
b1000000011100 4
b1000000011100 A
b11000 M"
1!
#102000
0!
#103000
b101 d
b1100011 $
b1100011 5
b1100011 g
b11010 L"
1I
b1000000011101 )
b1000000011101 4
b1000000011101 A
0-
0[
b1001 ^
b1000010100100 0
b1000010100100 @
b1000010100100 W
b1000010100100 ]
b11001 M"
1!
#104000
0!
#105000
b10000010 $
b10000010 5
b110 d
b10000010 g
b11011 L"
b1010 ^
b1000010101000 0
b1000010101000 @
b1000010101000 W
b1000010101000 ]
b100 L
b1000010100100 M
b1 D
b1000000011110 )
b1000000011110 4
b1000000011110 A
b11010 M"
1!
#106000
0!
#107000
b111 d
b111 $
b111 5
b111 g
b11100 L"
1>
1*
1J
b10 D
b1000000011111 )
b1000000011111 4
b1000000011111 A
b1011 ^
b1000010101100 0
b1000010101100 @
b1000010101100 W
b1000010101100 ]
b11011 M"
1!
#108000
0!
#109000
b10 $
b10 5
b0 d
b10 g
b11101 L"
1-
1[
b11 D
b1000000100000 )
b1000000100000 4
b1000000100000 A
b11100 M"
1!
#110000
0!
#111000
b1 d
b110111 $
b110111 5
b110111 g
b11110 L"
b0 D
0I
1;
1,
1G
b1000000011100 3
b1000000011100 B
b1100011100000100000011100000010 /
b1100011100000100000011100000010 7
b1100011100000100000011100000010 P
b1100011100000100000011100000010 9
b1100011100000100000011100000010 E
b1000000100001 )
b1000000100001 4
b1000000100001 A
b11101 M"
1!
#112000
0!
#113000
b10111 $
b10111 5
b10111 g
b11111 L"
b1000 _
b1000 F
0K
0;
0,
0G
b11110 M"
1!
#114000
0!
#115000
b0 d
b100000 L"
0>
0*
0J
1K
b1000000100000 )
b1000000100000 4
b1000000100000 A
b11111 M"
1!
#116000
0!
#117000
b110111 $
b110111 5
b1 d
b110111 g
b100001 L"
0-
0[
b1100 ^
b1000010110000 0
b1000010110000 @
b1000010110000 W
b1000010110000 ]
1I
b1000000100001 )
b1000000100001 4
b1000000100001 A
b100000 M"
1!
