riscv/src/testbench/crob1/test.vcd
$date
	Tue Nov 23 17:16:11 2021
$end
$version
	Icarus Verilog
$end
$timescale
	1ps
$end
$scope module testbench $end
$scope module top $end
$scope module cpu0 $end
$var wire 1 ! clk_in $end
$var wire 32 " dbgreg_dout [31:0] $end
$var wire 1 # is_receive_from_iq_to_fc $end
$var wire 8 $ mem_din [7:0] $end
$var wire 5 % rd_from_rf_to_rob [4:0] $end
$var wire 1 & rdy_in $end
$var wire 1 ' rst_in $end
$var wire 32 ( v2_from_rs_to_alu [31:0] $end
$var wire 32 ) v2_from_rob_to_rs [31:0] $end
$var wire 32 * v2_from_rf_to_rob [31:0] $end
$var wire 32 + v1_from_rs_to_alu [31:0] $end
$var wire 32 , v1_from_rob_to_rs [31:0] $end
$var wire 32 - v1_from_rf_to_rob [31:0] $end
$var wire 5 . rs2_from_dc_to_rf [4:0] $end
$var wire 5 / rs1_from_dc_to_rf [4:0] $end
$var wire 5 0 rd_from_dc_to_rf [4:0] $end
$var wire 32 1 q2_from_rob_to_rs [31:0] $end
$var wire 32 2 q2_from_rf_to_rob [31:0] $end
$var wire 32 3 q1_from_rob_to_rs [31:0] $end
$var wire 32 4 q1_from_rf_to_rob [31:0] $end
$var wire 32 5 pc_from_rs_to_alu [31:0] $end
$var wire 32 6 pc_from_rob_to_rs [31:0] $end
$var wire 32 7 pc_from_rf_to_rob [31:0] $end
$var wire 32 8 pc_from_iq_to_dc [31:0] $end
$var wire 32 9 pc_from_dc_to_rf [31:0] $end
$var wire 6 : op_from_rs_to_alu [5:0] $end
$var wire 6 ; op_from_rob_to_rs [5:0] $end
$var wire 6 < op_from_rf_to_rob [5:0] $end
$var wire 6 = op_from_dc_to_rf [5:0] $end
$var wire 1 > mem_wr $end
$var wire 8 ? mem_dout [7:0] $end
$var wire 32 @ mem_a [31:0] $end
$var wire 1 A is_stall_from_rob_to_iq $end
$var wire 1 B is_stall_from_fc_to_iq $end
$var wire 1 C is_sl_from_rob_to_rs $end
$var wire 1 D is_instr_from_fc_to_iq $end
$var wire 1 E is_finish_from_fc_to_iq $end
$var wire 1 F is_empty_from_rs_to_alu $end
$var wire 1 G is_empty_from_rob_to_rs $end
$var wire 1 H is_empty_from_rf_to_rob $end
$var wire 1 I is_empty_from_iq_to_fc $end
$var wire 1 J is_empty_from_iq_to_dc $end
$var wire 1 K is_empty_from_dc_to_rf $end
$var wire 1 L io_buffer_full $end
$var wire 32 M instr_from_iq_to_dc [31:0] $end
$var wire 32 N instr_from_fc_to_iq [31:0] $end
$var wire 32 O imm_from_rs_to_alu [31:0] $end
$var wire 32 P imm_from_rob_to_rs [31:0] $end
$var wire 32 Q imm_from_rf_to_rob [31:0] $end
$var wire 32 R imm_from_dc_to_rf [31:0] $end
$var wire 32 S addr_from_iq_to_fc [31:0] $end
$var reg 1 T false $end
$var reg 1 U true $end
$scope module malu $end
$var wire 1 ! clk $end
$var wire 32 V data_to_rob [31:0] $end
$var wire 1 W is_finish_to_rob $end
$var wire 32 X jpc_to_rob [31:0] $end
$var wire 32 Y pc_to_rob [31:0] $end
$var wire 1 ' rst $end
$var wire 32 Z v2_from_rs [31:0] $end
$var wire 32 [ v1_from_rs [31:0] $end
$var wire 32 \ pc_from_rs [31:0] $end
$var wire 6 ] op_from_rs [5:0] $end
$var wire 1 F is_empty_from_rs $end
$var wire 32 ^ imm_from_rs [31:0] $end
$var reg 32 _ data [31:0] $end
$var reg 32 ` imm [31:0] $end
$var reg 1 a is_finish $end
$var reg 32 b jpc [31:0] $end
$var reg 6 c op [5:0] $end
$var reg 32 d pc [31:0] $end
$var reg 32 e uv1 [31:0] $end
$var reg 32 f uv2 [31:0] $end
$var reg 32 g v1 [31:0] $end
$var reg 32 h v2 [31:0] $end
$upscope $end
$scope module mdc $end
$var wire 32 i imm_to_reg [31:0] $end
$var wire 1 K is_empty_to_reg $end
$var wire 6 j op_to_reg [5:0] $end
$var wire 32 k pc_to_reg [31:0] $end
$var wire 5 l rd_to_reg [4:0] $end
$var wire 5 m rs1_to_reg [4:0] $end
$var wire 5 n rs2_to_reg [4:0] $end
$var wire 1 ' rst $end
$var wire 32 o pc_from_instr_queue [31:0] $end
$var wire 1 J is_empty_from_instr_queue $end
$var wire 32 p instr_from_instr_queue [31:0] $end
$var reg 32 q imm [31:0] $end
$var reg 32 r instr [31:0] $end
$var reg 6 s op [5:0] $end
$var reg 32 t pc [31:0] $end
$var reg 5 u rd [4:0] $end
$var reg 5 v rs1 [4:0] $end
$var reg 5 w rs2 [4:0] $end
$upscope $end
$scope module mfc $end
$var wire 32 x addr_from_slb [31:0] $end
$var wire 32 y addr_to_iq [31:0] $end
$var wire 32 z addr_to_ram [31:0] $end
$var wire 1 ! clk $end
$var wire 8 { data_from_ram [7:0] $end
$var wire 32 | data_from_slb [31:0] $end
$var wire 32 } data_to_iq [31:0] $end
$var wire 8 ~ data_to_ram [7:0] $end
$var wire 32 !" data_to_slb [31:0] $end
$var wire 1 U is_empty_from_slb $end
$var wire 1 "" is_exception_from_rob $end
$var wire 1 E is_finish_to_iq $end
$var wire 1 #" is_finish_to_slb $end
$var wire 1 D is_instr_to_iq $end
$var wire 1 $" is_instr_to_slb $end
$var wire 1 # is_receive_from_iq $end
$var wire 1 %" is_receive_from_slb $end
$var wire 1 B is_stall_to_iq $end
$var wire 1 &" is_stall_to_slb $end
$var wire 1 '" is_store_from_slb $end
$var wire 1 > is_store_to_ram $end
$var wire 1 ' rst $end
$var wire 1 I is_empty_from_iq $end
$var wire 32 (" addr_from_iq [31:0] $end
$var reg 32 )" addr [31:0] $end
$var reg 32 *" addr_iq [31:0] $end
$var reg 8 +" char [7:0] $end
$var reg 2 ," cnt [1:0] $end
$var reg 32 -" data [31:0] $end
$var reg 5 ." head_pointer [4:0] $end
$var reg 1 /" is_finish $end
$var reg 1 0" is_instr $end
$var reg 1 1" is_past $end
$var reg 1 2" is_stall $end
$var reg 1 3" is_start $end
$var reg 1 > is_store $end
$var reg 5 4" tail_pointer [4:0] $end
$var reg 32 5" testAddr [31:0] $end
$var integer 32 6" i [31:0] $end
$upscope $end
$scope module miq $end
$var wire 1 7" addr_from_fc $end
$var wire 1 ! clk $end
$var wire 32 8" instr_from_fc [31:0] $end
$var wire 32 9" instr_to_dc [31:0] $end
$var wire 1 J is_empty_to_dc $end
$var wire 1 I is_empty_to_fc $end
$var wire 1 :" is_exception_from_rob $end
$var wire 1 E is_finish_from_fc $end
$var wire 1 D is_instr_from_fc $end
$var wire 1 # is_receive_to_fc $end
$var wire 1 B is_stall_from_fc $end
$var wire 32 ;" pc_from_rob [31:0] $end
$var wire 32 <" pc_to_dc [31:0] $end
$var wire 32 =" pc_to_fc [31:0] $end
$var wire 1 ' rst $end
$var wire 1 A is_stall_from_rob $end
$var reg 4 >" head_pointer [3:0] $end
$var reg 32 ?" instr_dc [31:0] $end
$var reg 1 J is_empty_dc $end
$var reg 1 @" is_empty_fc $end
$var reg 32 A" pc_dc [31:0] $end
$var reg 32 B" pc_fc [31:0] $end
$var reg 4 C" store_pointer [3:0] $end
$var reg 4 D" tail_pointer [3:0] $end
$var reg 32 E" test [31:0] $end
$var integer 32 F" i [31:0] $end
$upscope $end
$scope module mrf $end
$var wire 1 ! clk $end
$var wire 32 G" data_from_rob [31:0] $end
$var wire 32 H" imm_from_decoder [31:0] $end
$var wire 32 I" imm_to_rob [31:0] $end
$var wire 1 K is_empty_from_decoder $end
$var wire 1 H is_empty_to_rob $end
$var wire 1 J" is_exception_from_rob $end
$var wire 1 K" is_finish_from_rob $end
$var wire 6 L" op_from_decoder [5:0] $end
$var wire 6 M" op_to_rob [5:0] $end
$var wire 32 N" pc_from_decoder [31:0] $end
$var wire 32 O" pc_from_rob [31:0] $end
$var wire 32 P" pc_to_rob [31:0] $end
$var wire 32 Q" q1_to_rob [31:0] $end
$var wire 32 R" q2_to_rob [31:0] $end
$var wire 5 S" rd_from_decoder [4:0] $end
$var wire 5 T" rd_from_rob [4:0] $end
$var wire 5 U" rs1_from_decoder [4:0] $end
$var wire 5 V" rs2_from_decoder [4:0] $end
$var wire 1 ' rst $end
$var wire 32 W" v1_to_rob [31:0] $end
$var wire 32 X" v2_to_rob [31:0] $end
$var reg 1 Y" is_empty $end
$var reg 6 Z" op [5:0] $end
$var reg 32 [" pc [31:0] $end
$var reg 32 \" q1 [31:0] $end
$var reg 32 ]" q2 [31:0] $end
$var reg 32 ^" v1 [31:0] $end
$var reg 32 _" v2 [31:0] $end
$var integer 32 `" i [31:0] $end
$upscope $end
$scope module mrob $end
$var wire 1 ! clk $end
$var wire 32 a" commit_data_to_reg [31:0] $end
$var wire 32 b" commit_data_to_rs [31:0] $end
$var wire 32 c" commit_data_to_slb [31:0] $end
$var wire 32 d" commit_pc_to_reg [31:0] $end
$var wire 32 e" commit_pc_to_rs [31:0] $end
$var wire 32 f" commit_pc_to_slb [31:0] $end
$var wire 5 g" commit_rd_to_reg [4:0] $end
$var wire 32 h" data_from_alu [31:0] $end
$var wire 32 i" data_from_slb [31:0] $end
$var wire 32 j" imm_from_reg [31:0] $end
$var wire 32 k" imm_to_rs [31:0] $end
$var wire 32 l" imm_to_slb [31:0] $end
$var wire 1 H is_empty_from_reg $end
$var wire 1 G is_empty_to_rs $end
$var wire 1 m" is_empty_to_slb $end
$var wire 1 T is_exception_from_rob $end
$var wire 1 n" is_exception_to_fc $end
$var wire 1 o" is_exception_to_instr_queue $end
$var wire 1 p" is_exception_to_reg $end
$var wire 1 q" is_exception_to_rs $end
$var wire 1 r" is_exception_to_slb $end
$var wire 1 s" is_finish_from_alu $end
$var wire 1 t" is_finish_from_slb $end
$var wire 1 u" is_finish_to_reg $end
$var wire 1 C is_sl_to_rs $end
$var wire 1 v" is_sl_to_slb $end
$var wire 1 w" is_stall_from_rs $end
$var wire 1 x" is_stall_from_slb $end
$var wire 1 A is_stall_to_instr_queue $end
$var wire 32 y" jpc_from_alu [31:0] $end
$var wire 6 z" op_from_reg [5:0] $end
$var wire 6 {" op_to_rs [5:0] $end
$var wire 6 |" op_to_slb [5:0] $end
$var wire 32 }" pc_from_alu [31:0] $end
$var wire 32 ~" pc_from_reg [31:0] $end
$var wire 32 !# pc_from_slb [31:0] $end
$var wire 32 "# pc_to_instr_queue [31:0] $end
$var wire 32 ## pc_to_rs [31:0] $end
$var wire 32 $# pc_to_slb [31:0] $end
$var wire 32 %# q1_from_reg [31:0] $end
$var wire 32 &# q1_to_rs [31:0] $end
$var wire 32 '# q1_to_slb [31:0] $end
$var wire 32 (# q2_from_reg [31:0] $end
$var wire 32 )# q2_to_rs [31:0] $end
$var wire 32 *# q2_to_slb [31:0] $end
$var wire 5 +# rd_from_reg [4:0] $end
$var wire 1 ' rst $end
$var wire 32 ,# v1_from_reg [31:0] $end
$var wire 32 -# v1_to_rs [31:0] $end
$var wire 32 .# v1_to_slb [31:0] $end
$var wire 32 /# v2_from_reg [31:0] $end
$var wire 32 0# v2_to_rs [31:0] $end
$var wire 32 1# v2_to_slb [31:0] $end
$var reg 32 2# commit_data [31:0] $end
$var reg 32 3# commit_jpc [31:0] $end
$var reg 32 4# commit_pc [31:0] $end
$var reg 5 5# commit_rd [4:0] $end
$var reg 4 6# head_pointer [3:0] $end
$var reg 32 7# imm [31:0] $end
$var reg 1 8# is_empty $end
$var reg 1 9# is_exception $end
$var reg 1 :# is_finish $end
$var reg 1 ;# is_sl $end
$var reg 1 <# is_stall $end
$var reg 6 =# op [5:0] $end
$var reg 32 ># pc [31:0] $end
$var reg 32 ?# q1 [31:0] $end
$var reg 32 @# q2 [31:0] $end
$var reg 4 A# tail_pointer [3:0] $end
$var reg 32 B# v1 [31:0] $end
$var reg 32 C# v2 [31:0] $end
$var integer 32 D# i [31:0] $end
$upscope $end
$scope module mrs $end
$var wire 1 ! clk $end
$var wire 32 E# commit_data_from_rob [31:0] $end
$var wire 32 F# commit_pc_from_rob [31:0] $end
$var wire 32 G# imm_from_rob [31:0] $end
$var wire 32 H# imm_to_alu [31:0] $end
$var wire 1 I# is_commit_from_rob $end
$var wire 1 G is_empty_from_rob $end
$var wire 1 F is_empty_to_alu $end
$var wire 1 J# is_exception_from_rob $end
$var wire 1 C is_sl_from_rob $end
$var wire 1 K# is_stall_to_rob $end
$var wire 6 L# op_from_rob [5:0] $end
$var wire 6 M# op_to_alu [5:0] $end
$var wire 32 N# pc_from_rob [31:0] $end
$var wire 32 O# pc_to_alu [31:0] $end
$var wire 32 P# q1_from_rob [31:0] $end
$var wire 32 Q# q2_from_rob [31:0] $end
$var wire 1 ' rst $end
$var wire 32 R# v1_from_rob [31:0] $end
$var wire 32 S# v1_to_alu [31:0] $end
$var wire 32 T# v2_from_rob [31:0] $end
$var wire 32 U# v2_to_alu [31:0] $end
$var reg 32 V# imm [31:0] $end
$var reg 1 W# is_empty $end
$var reg 1 X# is_stall $end
$var reg 6 Y# op [5:0] $end
$var reg 32 Z# pc [31:0] $end
$var reg 32 [# v1 [31:0] $end
$var reg 32 \# v2 [31:0] $end
$var integer 32 ]# i [31:0] $end
$scope begin loop $end
$upscope $end
$scope begin loop2 $end
$upscope $end
$upscope $end
$upscope $end
$upscope $end
$upscope $end
$scope module testbench $end
$scope module top $end
$scope module hci0 $end
$var wire 1 ! clk $end
$var wire 32 ^# cpu_dbgreg_din [31:0] $end
$var wire 8 _# io_din [7:0] $end
$var wire 1 `# io_en $end
$var wire 1 L io_full $end
$var wire 3 a# io_sel [2:0] $end
$var wire 1 b# io_wr $end
$var wire 17 c# ram_a [16:0] $end
$var wire 8 d# ram_din [7:0] $end
$var wire 8 e# ram_dout [7:0] $end
$var wire 1 f# rst $end
$var wire 1 g# rx $end
$var wire 1 h# tx_full $end
$var wire 1 i# tx $end
$var wire 1 j# rx_empty $end
$var wire 8 k# rd_data [7:0] $end
$var wire 1 l# parity_err $end
$var wire 8 m# io_in_rd_data [7:0] $end
$var wire 1 n# io_in_full $end
$var wire 1 o# io_in_empty $end
$var wire 8 p# io_dout [7:0] $end
$var wire 32 q# d_cpu_cycle_cnt [31:0] $end
$var wire 1 r# active $end
$var reg 17 s# d_addr [16:0] $end
$var reg 3 t# d_decode_cnt [2:0] $end
$var reg 2 u# d_err_code [1:0] $end
$var reg 17 v# d_execute_cnt [16:0] $end
$var reg 8 w# d_io_dout [7:0] $end
$var reg 8 x# d_io_in_wr_data [7:0] $end
$var reg 1 y# d_io_in_wr_en $end
$var reg 1 z# d_program_finish $end
$var reg 5 {# d_state [4:0] $end
$var reg 8 |# d_tx_data [7:0] $end
$var reg 1 }# d_wr_en $end
$var reg 1 ~# io_in_rd_en $end
$var reg 1 !$ program_finish $end
$var reg 17 "$ q_addr [16:0] $end
$var reg 32 #$ q_cpu_cycle_cnt [31:0] $end
$var reg 3 $$ q_decode_cnt [2:0] $end
$var reg 2 %$ q_err_code [1:0] $end
$var reg 17 &$ q_execute_cnt [16:0] $end
$var reg 8 '$ q_io_dout [7:0] $end
$var reg 1 ($ q_io_en $end
$var reg 8 )$ q_io_in_wr_data [7:0] $end
$var reg 1 *$ q_io_in_wr_en $end
$var reg 5 +$ q_state [4:0] $end
$var reg 8 ,$ q_tx_data [7:0] $end
$var reg 1 -$ q_wr_en $end
$var reg 1 .$ ram_wr $end
$var reg 1 /$ rd_en $end
$scope module io_in_fifo $end
$var wire 10 0$ addr_bits_wide_1 [9:0] $end
$var wire 1 ! clk $end
$var wire 1 1$ d_empty $end
$var wire 1 2$ d_full $end
$var wire 1 o# empty $end
$var wire 1 n# full $end
$var wire 8 3$ rd_data [7:0] $end
$var wire 1 ~# rd_en $end
$var wire 1 4$ rd_en_prot $end
$var wire 1 f# reset $end
$var wire 8 5$ wr_data [7:0] $end
$var wire 1 *$ wr_en $end
$var wire 1 6$ wr_en_prot $end
$var wire 10 7$ d_wr_ptr [9:0] $end
$var wire 10 8$ d_rd_ptr [9:0] $end
$var wire 8 9$ d_data [7:0] $end
$var reg 1 :$ q_empty $end
$var reg 1 ;$ q_full $end
$var reg 10 <$ q_rd_ptr [9:0] $end
$var reg 10 =$ q_wr_ptr [9:0] $end
$upscope $end
$scope module uart_blk $end
$var wire 1 ! clk $end
$var wire 1 >$ d_rx_parity_err $end
$var wire 1 l# parity_err $end
$var wire 1 /$ rd_en $end
$var wire 1 f# reset $end
$var wire 1 g# rx $end
$var wire 8 ?$ tx_data [7:0] $end
$var wire 1 -$ wr_en $end
$var wire 1 h# tx_full $end
$var wire 8 @$ tx_fifo_rd_data [7:0] $end
$var wire 1 A$ tx_fifo_empty $end
$var wire 1 B$ tx_done_tick $end
$var wire 1 i# tx $end
$var wire 1 C$ rx_parity_err $end
$var wire 8 D$ rx_fifo_wr_data [7:0] $end
$var wire 1 j# rx_empty $end
$var wire 1 E$ rx_done_tick $end
$var wire 8 F$ rx_data [7:0] $end
$var wire 1 G$ baud_clk_tick $end
$var reg 1 H$ q_rx_parity_err $end
$scope module uart_baud_clk_blk $end
$var wire 1 ! clk $end
$var wire 1 f# reset $end
$var wire 16 I$ d_cnt [15:0] $end
$var wire 1 G$ baud_clk_tick $end
$var reg 16 J$ q_cnt [15:0] $end
$upscope $end
$scope module uart_rx_blk $end
$var wire 1 G$ baud_clk_tick $end
$var wire 1 ! clk $end
$var wire 1 f# reset $end
$var wire 1 g# rx $end
$var wire 8 K$ rx_data [7:0] $end
$var wire 1 E$ rx_done_tick $end
$var wire 1 C$ parity_err $end
$var reg 8 L$ d_data [7:0] $end
$var reg 3 M$ d_data_bit_idx [2:0] $end
$var reg 1 N$ d_done_tick $end
$var reg 4 O$ d_oversample_tick_cnt [3:0] $end
$var reg 1 P$ d_parity_err $end
$var reg 5 Q$ d_state [4:0] $end
$var reg 8 R$ q_data [7:0] $end
$var reg 3 S$ q_data_bit_idx [2:0] $end
$var reg 1 E$ q_done_tick $end
$var reg 4 T$ q_oversample_tick_cnt [3:0] $end
$var reg 1 C$ q_parity_err $end
$var reg 1 U$ q_rx $end
$var reg 5 V$ q_state [4:0] $end
$upscope $end
$scope module uart_rx_fifo $end
$var wire 3 W$ addr_bits_wide_1 [2:0] $end
$var wire 1 ! clk $end
$var wire 1 X$ d_empty $end
$var wire 1 Y$ d_full $end
$var wire 1 j# empty $end
$var wire 1 Z$ full $end
$var wire 8 [$ rd_data [7:0] $end
$var wire 1 /$ rd_en $end
$var wire 1 \$ rd_en_prot $end
$var wire 1 f# reset $end
$var wire 8 ]$ wr_data [7:0] $end
$var wire 1 E$ wr_en $end
$var wire 1 ^$ wr_en_prot $end
$var wire 3 _$ d_wr_ptr [2:0] $end
$var wire 3 `$ d_rd_ptr [2:0] $end
$var wire 8 a$ d_data [7:0] $end
$var reg 1 b$ q_empty $end
$var reg 1 c$ q_full $end
$var reg 3 d$ q_rd_ptr [2:0] $end
$var reg 3 e$ q_wr_ptr [2:0] $end
$upscope $end
$scope module uart_tx_blk $end
$var wire 1 G$ baud_clk_tick $end
$var wire 1 ! clk $end
$var wire 1 f# reset $end
$var wire 1 i# tx $end
$var wire 1 B$ tx_done_tick $end
$var wire 1 f$ tx_start $end
$var wire 8 g$ tx_data [7:0] $end
$var reg 4 h$ d_baud_clk_tick_cnt [3:0] $end
$var reg 8 i$ d_data [7:0] $end
$var reg 3 j$ d_data_bit_idx [2:0] $end
$var reg 1 k$ d_parity_bit $end
$var reg 5 l$ d_state [4:0] $end
$var reg 1 m$ d_tx $end
$var reg 1 n$ d_tx_done_tick $end
$var reg 4 o$ q_baud_clk_tick_cnt [3:0] $end
$var reg 8 p$ q_data [7:0] $end
$var reg 3 q$ q_data_bit_idx [2:0] $end
$var reg 1 r$ q_parity_bit $end
$var reg 5 s$ q_state [4:0] $end
$var reg 1 t$ q_tx $end
$var reg 1 B$ q_tx_done_tick $end
$upscope $end
$scope module uart_tx_fifo $end
$var wire 10 u$ addr_bits_wide_1 [9:0] $end
$var wire 1 ! clk $end
$var wire 1 v$ d_empty $end
$var wire 1 w$ d_full $end
$var wire 1 A$ empty $end
$var wire 1 h# full $end
$var wire 8 x$ rd_data [7:0] $end
$var wire 1 B$ rd_en $end
$var wire 1 y$ rd_en_prot $end
$var wire 1 f# reset $end
$var wire 8 z$ wr_data [7:0] $end
$var wire 1 -$ wr_en $end
$var wire 1 {$ wr_en_prot $end
$var wire 10 |$ d_wr_ptr [9:0] $end
$var wire 10 }$ d_rd_ptr [9:0] $end
$var wire 8 ~$ d_data [7:0] $end
$var reg 1 !% q_empty $end
$var reg 1 "% q_full $end
$var reg 10 #% q_rd_ptr [9:0] $end
$var reg 10 $% q_wr_ptr [9:0] $end
$upscope $end
$upscope $end
$upscope $end
$upscope $end
$upscope $end
$scope module testbench $end
$scope module top $end
$scope module hci0 $end
$scope module io_in_fifo $end
$upscope $end
$scope module uart_blk $end
$scope module uart_baud_clk_blk $end
$upscope $end
$scope module uart_rx_blk $end
$upscope $end
$scope module uart_rx_fifo $end
$upscope $end
$scope module uart_tx_blk $end
$upscope $end
$scope module uart_tx_fifo $end
$upscope $end
$upscope $end
$upscope $end
$upscope $end
$upscope $end
$scope module testbench $end
$scope module top $end
$scope module hci0 $end
$scope module io_in_fifo $end
$upscope $end
$scope module uart_blk $end
$scope module uart_baud_clk_blk $end
$upscope $end
$scope module uart_rx_blk $end
$upscope $end
$scope module uart_rx_fifo $end
$upscope $end
$scope module uart_tx_blk $end
$upscope $end
$scope module uart_tx_fifo $end
$upscope $end
$upscope $end
$upscope $end
$upscope $end
$upscope $end
$enddefinitions $end
#0
$dumpvars
bx $%
bx #%
x"%
x!%
bx ~$
bx }$
bx |$
x{$
bx z$
0y$
bx x$
xw$
xv$
b1 u$
1t$
b1 s$
0r$
b0 q$
b0 p$
b0 o$
0n$
1m$
b1 l$
0k$
b0 j$
b0 i$
b0 h$
bx g$
xf$
bx e$
bx d$
xc$
xb$
bx a$
bx `$
bx _$
0^$
b0 ]$
0\$
bx [$
xZ$
xY$
xX$
b1 W$
b1 V$
1U$
b0 T$
b0 S$
b0 R$
b1 Q$
0P$
b0 O$
0N$
b0 M$
b0 L$
b0 K$
b0 J$
b1 I$
0H$
0G$
bx F$
0E$
b0 D$
0C$
0B$
xA$
bx @$
bx ?$
0>$
bx =$
bx <$
x;$
x:$
bx 9$
bx 8$
bx 7$
x6$
bx 5$
04$
bx 3$
x2$
x1$
b1 0$
0/$
0.$
x-$
bx ,$
bx +$
x*$
bx )$
x($
bx '$
bx &$
bx %$
bx $$
bx #$
bx "$
x!$
0~#
0}#
b0 |#
bx {#
0z#
0y#
b0 x#
b0 w#
bx v#
bx u#
bx t#
bx s#
xr#
bx q#
bx p#
xo#
xn#
bx m#
0l#
bx k#
xj#
1i#
xh#
zg#
1f#
bx e#
bx d#
bx c#
0b#
bx a#
x`#
bx _#
bz ^#
b1000 ]#
b0 \#
b0 [#
b0 Z#
b0 Y#
0X#
1W#
b0 V#
b0 U#
b0 T#
b0 S#
b0 R#
b0 Q#
b0 P#
b0 O#
b0 N#
b0 M#
b0 L#
0K#
zJ#
zI#
b0 H#
b0 G#
bz F#
bz E#
b10000 D#
b0 C#
b0 B#
b0 A#
b0 @#
b0 ?#
b0 >#
b0 =#
0<#
0;#
0:#
09#
08#
b0 7#
b0 6#
b0 5#
b0 4#
b0 3#
b0 2#
b0 1#
b0 0#
b0 /#
b0 .#
b0 -#
b0 ,#
bz +#
b0 *#
b0 )#
b0 (#
b0 '#
b0 &#
b0 %#
b0 $#
b0 ##
b0 "#
bz !#
b0 ~"
bz }"
b0 |"
b0 {"
b0 z"
bz y"
zx"
zw"
0v"
0u"
zt"
zs"
0r"
0q"
0p"
0o"
zn"
0m"
b0 l"
b0 k"
b0 j"
bz i"
bz h"
b0 g"
b0 f"
b0 e"
b0 d"
b0 c"
b0 b"
b0 a"
b11111 `"
b0 _"
b0 ^"
b0 ]"
b0 \"
b0 ["
b0 Z"
1Y"
b0 X"
b0 W"
b0 V"
b0 U"
bz T"
b0 S"
b0 R"
b0 Q"
b0 P"
bz O"
b0 N"
b0 M"
b0 L"
zK"
zJ"
b0 I"
b0 H"
bz G"
b10000 F"
bx E"
b0 D"
b0 C"
b1000000000000 B"
b0 A"
0@"
b0 ?"
b0 >"
b1000000000000 ="
b0 <"
bz ;"
z:"
b0 9"
b0 8"
z7"
b11111 6"
bx 5"
b0 4"
03"
02"
01"
00"
0/"
b0 ."
b0 -"
b0 ,"
bx +"
bx *"
bx )"
b1000000000000 ("
z'"
0&"
z%"
0$"
0#"
z""
b0 !"
bx ~
b0 }
bz |
bx {
bx z
bx y
bz x
b0 w
b0 v
b0 u
b0 t
b0 s
b0 r
b0 q
b0 p
b0 o
b0 n
b0 m
b0 l
b0 k
b0 j
b0 i
b0 h
b0 g
b0 f
b0 e
b0 d
b0 c
b100 b
0a
b0 `
b0 _
b0 ^
b0 ]
b0 \
b0 [
b0 Z
b0 Y
b100 X
0W
b0 V
1U
0T
b1000000000000 S
b0 R
b0 Q
b0 P
b0 O
b0 N
b0 M
xL
1K
1J
0I
1H
0G
1F
0E
0D
0C
0B
0A
bx @
bx ?
0>
b0 =
b0 <
b0 ;
b0 :
b0 9
b0 8
b0 7
b0 6
b0 5
b0 4
b0 3
b0 2
b0 1
b0 0
b0 /
b0 .
b0 -
b0 ,
b0 +
b0 *
b0 )
b0 (
1'
1&
bz %
bx $
z#
bz "
0!
$end
#1000
11$
02$
0Y$
1X$
1v$
0w$
b0 7$
b0 8$
b0 _$
b0 `$
0f$
b0 |$
b0 }$
06$
0{$
b0 u#
b0 s#
b0 v#
b0 t#
b1 {#
b0 q#
1m"
1G
18#
b1 C"
b1000000000100 S
b1000000000100 ("
b1000000000100 ="
b1000000000100 B"
b1 E"
b1 4"
b1000000000000 5"
0n#
0;$
1o#
1:$
b0 =$
b0 <$
0Z$
0c$
1j#
1b$
b0 e$
b0 d$
0L
0h#
0"%
1A$
1!%
b0 $%
b0 #%
b0 p#
b0 '$
b0 #$
0($
b0 )$
b0 5$
0*$
0-$
b0 ,$
b0 ?$
b0 z$
b0 %$
b0 c#
b0 "$
b0 &$
b0 $$
1r#
b1 +$
0K#
0X#
b0 ]#
1!
#2000
0!
#3000
0`#
b0 a#
b10 4"
b1000000000100 5"
13"
b1000000000000 @
b1000000000000 z
b1000000000000 )"
b10 C"
b1000000001000 S
b1000000001000 ("
b1000000001000 ="
b1000000001000 B"
b10 E"
1!
#4000
0!
#5000
b110111 $
b110111 {
b1 a#
b110111 d#
b11 C"
b1000000001100 S
b1000000001100 ("
b1000000001100 ="
b1000000001100 B"
b11 E"
b11 4"
b1000000001000 5"
11"
b1000000000001 @
b1000000000001 z
b1000000000001 )"
1!
#6000
0!
#7000
b10 a#
b10111 $
b10111 {
b10111 d#
b100 4"
b1000000001100 5"
b1 ,"
b1000000000010 @
b1000000000010 z
b1000000000010 )"
b100 C"
b1000000010000 S
b1000000010000 ("
b1000000010000 ="
b1000000010000 B"
b100 E"
1!
#8000
0!
#9000
b0 $
b0 {
b11 a#
b0 d#
b101 C"
b1000000010100 S
b1000000010100 ("
b1000000010100 ="
b1000000010100 B"
b101 E"
b101 4"
b1000000010000 5"
b10 ,"
b1000000000011 @
b1000000000011 z
b1000000000011 )"
1!
#10000
0!
#11000
b100 a#
b110 4"
b1000000010100 5"
b11 ,"
b1000000000100 @
b1000000000100 z
b1000000000100 )"
b110 C"
b1000000011000 S
b1000000011000 ("
b1000000011000 ="
b1000000011000 B"
b110 E"
1!
#12000
0!
#13000
b10000011 $
b10000011 {
b101 a#
b10000011 d#
b111 C"
b1000000011100 S
b1000000011100 ("
b1000000011100 ="
b1000000011100 B"
b111 E"
b111 4"
b1000000011000 5"
b0 ,"
01"
1#"
1E
1/"
b1000000000000 y
b1000000000000 *"
b1011100110111 N
b1011100110111 }
b1011100110111 8"
b1011100110111 !"
b1011100110111 -"
1$"
1D
10"
b1000000000101 @
b1000000000101 z
b1000000000101 )"
1!
#14000
0!
#15000
b100111 $
b100111 {
b100111 d#
b1000 4"
b1000000011100 5"
b1 ."
03"
0#"
0E
0/"
b1000 C"
b1000000100000 S
b1000000100000 ("
b1000000100000 ="
b1000000100000 B"
b1000 E"
b1 D"
1!
#16000
0!
#17000
b100 a#
b1 Q
b1 I"
b1 j"
b1 R
b1 i
b1 q
b1 H"
b1110 0
b1110 l
b1110 S"
b1110 u
b1000000000000 9
b1000000000000 k
b1000000000000 N"
b1000000000000 t
b1011100110111 r
b1 >"
0K
0J
b1011100110111 M
b1011100110111 p
b1011100110111 9"
b1011100110111 ?"
b1000000000000 8
b1000000000000 o
b1000000000000 <"
b1000000000000 A"
b1001 C"
b1000000100100 S
b1000000100100 ("
b1000000100100 ="
b1000000100100 B"
b1001 E"
b1001 4"
b1000000100000 5"
13"
b1000000000100 @
b1000000000100 z
b1000000000100 )"
1!
#18000
0!
#19000
b101 a#
b10000011 $
b10000011 {
b10000011 d#
b1010 4"
b1000000100100 5"
11"
b1000000000101 @
b1000000000101 z
b1000000000101 )"
1K
1J
b1010 C"
b1000000101000 S
b1000000101000 ("
b1000000101000 ="
b1000000101000 B"
b1010 E"
0H
0Y"
b1000000000000 7
b1000000000000 P"
b1000000000000 ~"
b1000000000000 ["
1!
#20000
0!
#21000
b100111 $
b100111 {
b110 a#
b100111 d#
b1 A#
b1000000000000 $#
b1000000000000 6
b1000000000000 ##
b1000000000000 N#
b1000000000000 >#
b1 l"
b1 P
b1 k"
b1 G#
b1 7#
0m"
0G
08#
1H
1Y"
b1011 C"
b1000000101100 S
b1000000101100 ("
b1000000101100 ="
b1000000101100 B"
b1011 E"
b1011 4"
b1000000101000 5"
b1 ,"
b1000000000110 @
b1000000000110 z
b1000000000110 )"
1!
#22000
0!
