riscv/src/testbench/crob1/test.vcd
$date
	Mon Nov 22 22:15:35 2021
$end
$version
	Icarus Verilog
$end
$timescale
	1ps
$end
$scope module testbench $end
$scope module top $end
$scope module cpu0 $end
$var wire 1 ! clk_in $end
$var wire 32 " dbgreg_dout [31:0] $end
$var wire 1 # is_receive_from_iq_to_fc $end
$var wire 8 $ mem_din [7:0] $end
$var wire 5 % rd_from_rf_to_rob [4:0] $end
$var wire 1 & rdy_in $end
$var wire 1 ' rst_in $end
$var wire 32 ( v2_from_rf_to_rob [31:0] $end
$var wire 32 ) v1_from_rf_to_rob [31:0] $end
$var wire 5 * rs2_from_dc_to_rf [4:0] $end
$var wire 5 + rs1_from_dc_to_rf [4:0] $end
$var wire 5 , rd_from_dc_to_rf [4:0] $end
$var wire 32 - q2_from_rf_to_rob [31:0] $end
$var wire 32 . q1_from_rf_to_rob [31:0] $end
$var wire 32 / pc_from_rf_to_rob [31:0] $end
$var wire 32 0 pc_from_iq_to_dc [31:0] $end
$var wire 32 1 pc_from_dc_to_rf [31:0] $end
$var wire 6 2 op_from_rf_to_rob [5:0] $end
$var wire 6 3 op_from_dc_to_rf [5:0] $end
$var wire 1 4 mem_wr $end
$var wire 8 5 mem_dout [7:0] $end
$var wire 32 6 mem_a [31:0] $end
$var wire 1 7 is_stall_from_rob_to_iq $end
$var wire 1 8 is_stall_from_fc_to_iq $end
$var wire 1 9 is_instr_from_fc_to_iq $end
$var wire 1 : is_finish_from_fc_to_iq $end
$var wire 1 ; is_empty_from_rf_to_rob $end
$var wire 1 < is_empty_from_iq_to_fc $end
$var wire 1 = is_empty_from_iq_to_dc $end
$var wire 1 > is_empty_from_dc_to_rf $end
$var wire 1 ? io_buffer_full $end
$var wire 32 @ instr_from_iq_to_dc [31:0] $end
$var wire 32 A instr_from_fc_to_iq [31:0] $end
$var wire 32 B imm_from_rf_to_rob [31:0] $end
$var wire 32 C imm_from_dc_to_rf [31:0] $end
$var wire 32 D addr_from_iq_to_fc [31:0] $end
$var reg 1 E false $end
$var reg 1 F true $end
$scope module mdc $end
$var wire 32 G imm_to_reg [31:0] $end
$var wire 1 > is_empty_to_reg $end
$var wire 6 H op_to_reg [5:0] $end
$var wire 32 I pc_to_reg [31:0] $end
$var wire 5 J rd_to_reg [4:0] $end
$var wire 5 K rs1_to_reg [4:0] $end
$var wire 5 L rs2_to_reg [4:0] $end
$var wire 1 ' rst $end
$var wire 32 M pc_from_instr_queue [31:0] $end
$var wire 1 = is_empty_from_instr_queue $end
$var wire 32 N instr_from_instr_queue [31:0] $end
$var reg 32 O imm [31:0] $end
$var reg 32 P instr [31:0] $end
$var reg 6 Q op [5:0] $end
$var reg 32 R pc [31:0] $end
$var reg 5 S rd [4:0] $end
$var reg 5 T rs1 [4:0] $end
$var reg 5 U rs2 [4:0] $end
$upscope $end
$scope module mfc $end
$var wire 32 V addr_from_slb [31:0] $end
$var wire 32 W addr_to_iq [31:0] $end
$var wire 32 X addr_to_ram [31:0] $end
$var wire 1 ! clk $end
$var wire 8 Y data_from_ram [7:0] $end
$var wire 32 Z data_from_slb [31:0] $end
$var wire 32 [ data_to_iq [31:0] $end
$var wire 8 \ data_to_ram [7:0] $end
$var wire 32 ] data_to_slb [31:0] $end
$var wire 1 F is_empty_from_slb $end
$var wire 1 ^ is_exception_from_rob $end
$var wire 1 : is_finish_to_iq $end
$var wire 1 _ is_finish_to_slb $end
$var wire 1 9 is_instr_to_iq $end
$var wire 1 ` is_instr_to_slb $end
$var wire 1 # is_receive_from_iq $end
$var wire 1 a is_receive_from_slb $end
$var wire 1 8 is_stall_to_iq $end
$var wire 1 b is_stall_to_slb $end
$var wire 1 c is_store_from_slb $end
$var wire 1 4 is_store_to_ram $end
$var wire 1 ' rst $end
$var wire 1 < is_empty_from_iq $end
$var wire 32 d addr_from_iq [31:0] $end
$var reg 32 e addr [31:0] $end
$var reg 32 f addr_iq [31:0] $end
$var reg 8 g char [7:0] $end
$var reg 2 h cnt [1:0] $end
$var reg 32 i data [31:0] $end
$var reg 5 j head_pointer [4:0] $end
$var reg 1 k is_finish $end
$var reg 1 l is_instr $end
$var reg 1 m is_past $end
$var reg 1 n is_stall $end
$var reg 1 o is_start $end
$var reg 1 4 is_store $end
$var reg 5 p tail_pointer [4:0] $end
$var reg 32 q testAddr [31:0] $end
$var integer 32 r i [31:0] $end
$upscope $end
$scope module miq $end
$var wire 1 s addr_from_fc $end
$var wire 1 ! clk $end
$var wire 32 t instr_from_fc [31:0] $end
$var wire 32 u instr_to_dc [31:0] $end
$var wire 1 = is_empty_to_dc $end
$var wire 1 < is_empty_to_fc $end
$var wire 1 v is_exception_from_rob $end
$var wire 1 : is_finish_from_fc $end
$var wire 1 9 is_instr_from_fc $end
$var wire 1 # is_receive_to_fc $end
$var wire 1 8 is_stall_from_fc $end
$var wire 32 w pc_from_rob [31:0] $end
$var wire 32 x pc_to_dc [31:0] $end
$var wire 32 y pc_to_fc [31:0] $end
$var wire 1 ' rst $end
$var wire 1 7 is_stall_from_rob $end
$var reg 4 z head_pointer [3:0] $end
$var reg 32 { instr_dc [31:0] $end
$var reg 1 = is_empty_dc $end
$var reg 1 | is_empty_fc $end
$var reg 32 } pc_dc [31:0] $end
$var reg 32 ~ pc_fc [31:0] $end
$var reg 4 !" store_pointer [3:0] $end
$var reg 4 "" tail_pointer [3:0] $end
$var reg 32 #" test [31:0] $end
$var integer 32 $" i [31:0] $end
$upscope $end
$scope module mrf $end
$var wire 1 ! clk $end
$var wire 32 %" data_from_rob [31:0] $end
$var wire 32 &" imm_from_decoder [31:0] $end
$var wire 32 '" imm_to_rob [31:0] $end
$var wire 1 > is_empty_from_decoder $end
$var wire 1 ; is_empty_to_rob $end
$var wire 1 (" is_exception_from_rob $end
$var wire 1 )" is_finish_from_rob $end
$var wire 6 *" op_from_decoder [5:0] $end
$var wire 6 +" op_to_rob [5:0] $end
$var wire 32 ," pc_from_decoder [31:0] $end
$var wire 32 -" pc_from_rob [31:0] $end
$var wire 32 ." pc_to_rob [31:0] $end
$var wire 32 /" q1_to_rob [31:0] $end
$var wire 32 0" q2_to_rob [31:0] $end
$var wire 5 1" rd_from_decoder [4:0] $end
$var wire 5 2" rd_from_rob [4:0] $end
$var wire 5 3" rs1_from_decoder [4:0] $end
$var wire 5 4" rs2_from_decoder [4:0] $end
$var wire 1 ' rst $end
$var wire 32 5" v1_to_rob [31:0] $end
$var wire 32 6" v2_to_rob [31:0] $end
$var reg 1 7" is_empty $end
$var reg 6 8" op [5:0] $end
$var reg 32 9" pc [31:0] $end
$var reg 32 :" q1 [31:0] $end
$var reg 32 ;" q2 [31:0] $end
$var reg 32 <" v1 [31:0] $end
$var reg 32 =" v2 [31:0] $end
$var integer 32 >" i [31:0] $end
$upscope $end
$scope module mrob $end
$var wire 1 ! clk $end
$var wire 32 ?" commit_data_to_reg [31:0] $end
$var wire 32 @" commit_data_to_rs [31:0] $end
$var wire 32 A" commit_data_to_slb [31:0] $end
$var wire 32 B" commit_pc_to_reg [31:0] $end
$var wire 32 C" commit_pc_to_rs [31:0] $end
$var wire 32 D" commit_pc_to_slb [31:0] $end
$var wire 5 E" commit_rd_to_reg [4:0] $end
$var wire 32 F" data_from_alu [31:0] $end
$var wire 32 G" data_from_slb [31:0] $end
$var wire 32 H" imm_from_reg [31:0] $end
$var wire 32 I" imm_to_rs [31:0] $end
$var wire 32 J" imm_to_slb [31:0] $end
$var wire 1 ; is_empty_from_reg $end
$var wire 1 K" is_empty_to_rs $end
$var wire 1 L" is_empty_to_slb $end
$var wire 1 E is_exception_from_rob $end
$var wire 1 M" is_exception_to_fc $end
$var wire 1 N" is_exception_to_instr_queue $end
$var wire 1 O" is_exception_to_reg $end
$var wire 1 P" is_exception_to_rs $end
$var wire 1 Q" is_exception_to_slb $end
$var wire 1 R" is_finish_from_alu $end
$var wire 1 S" is_finish_from_slb $end
$var wire 1 T" is_finish_to_reg $end
$var wire 1 U" is_sl_to_rs $end
$var wire 1 V" is_sl_to_slb $end
$var wire 1 W" is_stall_from_rs $end
$var wire 1 X" is_stall_from_slb $end
$var wire 1 7 is_stall_to_instr_queue $end
$var wire 32 Y" jpc_from_alu [31:0] $end
$var wire 6 Z" op_from_reg [5:0] $end
$var wire 6 [" op_to_rs [5:0] $end
$var wire 6 \" op_to_slb [5:0] $end
$var wire 32 ]" pc_from_alu [31:0] $end
$var wire 32 ^" pc_from_reg [31:0] $end
$var wire 32 _" pc_from_slb [31:0] $end
$var wire 32 `" pc_to_instr_queue [31:0] $end
$var wire 32 a" pc_to_rs [31:0] $end
$var wire 32 b" pc_to_slb [31:0] $end
$var wire 32 c" q1_from_reg [31:0] $end
$var wire 32 d" q1_to_rs [31:0] $end
$var wire 32 e" q1_to_slb [31:0] $end
$var wire 32 f" q2_from_reg [31:0] $end
$var wire 32 g" q2_to_rs [31:0] $end
$var wire 32 h" q2_to_slb [31:0] $end
$var wire 5 i" rd_from_reg [4:0] $end
$var wire 1 ' rst $end
$var wire 32 j" v1_from_reg [31:0] $end
$var wire 32 k" v1_to_rs [31:0] $end
$var wire 32 l" v1_to_slb [31:0] $end
$var wire 32 m" v2_from_reg [31:0] $end
$var wire 32 n" v2_to_rs [31:0] $end
$var wire 32 o" v2_to_slb [31:0] $end
$var reg 32 p" commit_data [31:0] $end
$var reg 32 q" commit_jpc [31:0] $end
$var reg 32 r" commit_pc [31:0] $end
$var reg 5 s" commit_rd [4:0] $end
$var reg 3 t" head_pointer [2:0] $end
$var reg 32 u" imm [31:0] $end
$var reg 1 v" is_empty $end
$var reg 1 w" is_exception $end
$var reg 1 x" is_finish $end
$var reg 1 y" is_sl $end
$var reg 1 z" is_stall $end
$var reg 6 {" op [5:0] $end
$var reg 32 |" pc [31:0] $end
$var reg 32 }" q1 [31:0] $end
$var reg 32 ~" q2 [31:0] $end
$var reg 3 !# tail_pointer [2:0] $end
$var reg 32 "# v1 [31:0] $end
$var reg 32 ## v2 [31:0] $end
$var integer 32 $# i [31:0] $end
$upscope $end
$upscope $end
$upscope $end
$upscope $end
$scope module testbench $end
$scope module top $end
$scope module hci0 $end
$var wire 1 ! clk $end
$var wire 32 %# cpu_dbgreg_din [31:0] $end
$var wire 8 &# io_din [7:0] $end
$var wire 1 '# io_en $end
$var wire 1 ? io_full $end
$var wire 3 (# io_sel [2:0] $end
$var wire 1 )# io_wr $end
$var wire 17 *# ram_a [16:0] $end
$var wire 8 +# ram_din [7:0] $end
$var wire 8 ,# ram_dout [7:0] $end
$var wire 1 -# rst $end
$var wire 1 .# rx $end
$var wire 1 /# tx_full $end
$var wire 1 0# tx $end
$var wire 1 1# rx_empty $end
$var wire 8 2# rd_data [7:0] $end
$var wire 1 3# parity_err $end
$var wire 8 4# io_in_rd_data [7:0] $end
$var wire 1 5# io_in_full $end
$var wire 1 6# io_in_empty $end
$var wire 8 7# io_dout [7:0] $end
$var wire 32 8# d_cpu_cycle_cnt [31:0] $end
$var wire 1 9# active $end
$var reg 17 :# d_addr [16:0] $end
$var reg 3 ;# d_decode_cnt [2:0] $end
$var reg 2 <# d_err_code [1:0] $end
$var reg 17 =# d_execute_cnt [16:0] $end
$var reg 8 ># d_io_dout [7:0] $end
$var reg 8 ?# d_io_in_wr_data [7:0] $end
$var reg 1 @# d_io_in_wr_en $end
$var reg 1 A# d_program_finish $end
$var reg 5 B# d_state [4:0] $end
$var reg 8 C# d_tx_data [7:0] $end
$var reg 1 D# d_wr_en $end
$var reg 1 E# io_in_rd_en $end
$var reg 1 F# program_finish $end
$var reg 17 G# q_addr [16:0] $end
$var reg 32 H# q_cpu_cycle_cnt [31:0] $end
$var reg 3 I# q_decode_cnt [2:0] $end
$var reg 2 J# q_err_code [1:0] $end
$var reg 17 K# q_execute_cnt [16:0] $end
$var reg 8 L# q_io_dout [7:0] $end
$var reg 1 M# q_io_en $end
$var reg 8 N# q_io_in_wr_data [7:0] $end
$var reg 1 O# q_io_in_wr_en $end
$var reg 5 P# q_state [4:0] $end
$var reg 8 Q# q_tx_data [7:0] $end
$var reg 1 R# q_wr_en $end
$var reg 1 S# ram_wr $end
$var reg 1 T# rd_en $end
$scope module io_in_fifo $end
$var wire 10 U# addr_bits_wide_1 [9:0] $end
$var wire 1 ! clk $end
$var wire 1 V# d_empty $end
$var wire 1 W# d_full $end
$var wire 1 6# empty $end
$var wire 1 5# full $end
$var wire 8 X# rd_data [7:0] $end
$var wire 1 E# rd_en $end
$var wire 1 Y# rd_en_prot $end
$var wire 1 -# reset $end
$var wire 8 Z# wr_data [7:0] $end
$var wire 1 O# wr_en $end
$var wire 1 [# wr_en_prot $end
$var wire 10 \# d_wr_ptr [9:0] $end
$var wire 10 ]# d_rd_ptr [9:0] $end
$var wire 8 ^# d_data [7:0] $end
$var reg 1 _# q_empty $end
$var reg 1 `# q_full $end
$var reg 10 a# q_rd_ptr [9:0] $end
$var reg 10 b# q_wr_ptr [9:0] $end
$upscope $end
$scope module uart_blk $end
$var wire 1 ! clk $end
$var wire 1 c# d_rx_parity_err $end
$var wire 1 3# parity_err $end
$var wire 1 T# rd_en $end
$var wire 1 -# reset $end
$var wire 1 .# rx $end
$var wire 8 d# tx_data [7:0] $end
$var wire 1 R# wr_en $end
$var wire 1 /# tx_full $end
$var wire 8 e# tx_fifo_rd_data [7:0] $end
$var wire 1 f# tx_fifo_empty $end
$var wire 1 g# tx_done_tick $end
$var wire 1 0# tx $end
$var wire 1 h# rx_parity_err $end
$var wire 8 i# rx_fifo_wr_data [7:0] $end
$var wire 1 1# rx_empty $end
$var wire 1 j# rx_done_tick $end
$var wire 8 k# rx_data [7:0] $end
$var wire 1 l# baud_clk_tick $end
$var reg 1 m# q_rx_parity_err $end
$scope module uart_baud_clk_blk $end
$var wire 1 ! clk $end
$var wire 1 -# reset $end
$var wire 16 n# d_cnt [15:0] $end
$var wire 1 l# baud_clk_tick $end
$var reg 16 o# q_cnt [15:0] $end
$upscope $end
$scope module uart_rx_blk $end
$var wire 1 l# baud_clk_tick $end
$var wire 1 ! clk $end
$var wire 1 -# reset $end
$var wire 1 .# rx $end
$var wire 8 p# rx_data [7:0] $end
$var wire 1 j# rx_done_tick $end
$var wire 1 h# parity_err $end
$var reg 8 q# d_data [7:0] $end
$var reg 3 r# d_data_bit_idx [2:0] $end
$var reg 1 s# d_done_tick $end
$var reg 4 t# d_oversample_tick_cnt [3:0] $end
$var reg 1 u# d_parity_err $end
$var reg 5 v# d_state [4:0] $end
$var reg 8 w# q_data [7:0] $end
$var reg 3 x# q_data_bit_idx [2:0] $end
$var reg 1 j# q_done_tick $end
$var reg 4 y# q_oversample_tick_cnt [3:0] $end
$var reg 1 h# q_parity_err $end
$var reg 1 z# q_rx $end
$var reg 5 {# q_state [4:0] $end
$upscope $end
$scope module uart_rx_fifo $end
$var wire 3 |# addr_bits_wide_1 [2:0] $end
$var wire 1 ! clk $end
$var wire 1 }# d_empty $end
$var wire 1 ~# d_full $end
$var wire 1 1# empty $end
$var wire 1 !$ full $end
$var wire 8 "$ rd_data [7:0] $end
$var wire 1 T# rd_en $end
$var wire 1 #$ rd_en_prot $end
$var wire 1 -# reset $end
$var wire 8 $$ wr_data [7:0] $end
$var wire 1 j# wr_en $end
$var wire 1 %$ wr_en_prot $end
$var wire 3 &$ d_wr_ptr [2:0] $end
$var wire 3 '$ d_rd_ptr [2:0] $end
$var wire 8 ($ d_data [7:0] $end
$var reg 1 )$ q_empty $end
$var reg 1 *$ q_full $end
$var reg 3 +$ q_rd_ptr [2:0] $end
$var reg 3 ,$ q_wr_ptr [2:0] $end
$upscope $end
$scope module uart_tx_blk $end
$var wire 1 l# baud_clk_tick $end
$var wire 1 ! clk $end
$var wire 1 -# reset $end
$var wire 1 0# tx $end
$var wire 1 g# tx_done_tick $end
$var wire 1 -$ tx_start $end
$var wire 8 .$ tx_data [7:0] $end
$var reg 4 /$ d_baud_clk_tick_cnt [3:0] $end
$var reg 8 0$ d_data [7:0] $end
$var reg 3 1$ d_data_bit_idx [2:0] $end
$var reg 1 2$ d_parity_bit $end
$var reg 5 3$ d_state [4:0] $end
$var reg 1 4$ d_tx $end
$var reg 1 5$ d_tx_done_tick $end
$var reg 4 6$ q_baud_clk_tick_cnt [3:0] $end
$var reg 8 7$ q_data [7:0] $end
$var reg 3 8$ q_data_bit_idx [2:0] $end
$var reg 1 9$ q_parity_bit $end
$var reg 5 :$ q_state [4:0] $end
$var reg 1 ;$ q_tx $end
$var reg 1 g# q_tx_done_tick $end
$upscope $end
$scope module uart_tx_fifo $end
$var wire 10 <$ addr_bits_wide_1 [9:0] $end
$var wire 1 ! clk $end
$var wire 1 =$ d_empty $end
$var wire 1 >$ d_full $end
$var wire 1 f# empty $end
$var wire 1 /# full $end
$var wire 8 ?$ rd_data [7:0] $end
$var wire 1 g# rd_en $end
$var wire 1 @$ rd_en_prot $end
$var wire 1 -# reset $end
$var wire 8 A$ wr_data [7:0] $end
$var wire 1 R# wr_en $end
$var wire 1 B$ wr_en_prot $end
$var wire 10 C$ d_wr_ptr [9:0] $end
$var wire 10 D$ d_rd_ptr [9:0] $end
$var wire 8 E$ d_data [7:0] $end
$var reg 1 F$ q_empty $end
$var reg 1 G$ q_full $end
$var reg 10 H$ q_rd_ptr [9:0] $end
$var reg 10 I$ q_wr_ptr [9:0] $end
$upscope $end
$upscope $end
$upscope $end
$upscope $end
$upscope $end
$scope module testbench $end
$scope module top $end
$scope module hci0 $end
$scope module io_in_fifo $end
$upscope $end
$scope module uart_blk $end
$scope module uart_baud_clk_blk $end
$upscope $end
$scope module uart_rx_blk $end
$upscope $end
$scope module uart_rx_fifo $end
$upscope $end
$scope module uart_tx_blk $end
$upscope $end
$scope module uart_tx_fifo $end
$upscope $end
$upscope $end
$upscope $end
$upscope $end
$upscope $end
$scope module testbench $end
$scope module top $end
$scope module hci0 $end
$scope module io_in_fifo $end
$upscope $end
$scope module uart_blk $end
$scope module uart_baud_clk_blk $end
$upscope $end
$scope module uart_rx_blk $end
$upscope $end
$scope module uart_rx_fifo $end
$upscope $end
$scope module uart_tx_blk $end
$upscope $end
$scope module uart_tx_fifo $end
$upscope $end
$upscope $end
$upscope $end
$upscope $end
$upscope $end
$enddefinitions $end
#0
$dumpvars
bx I$
bx H$
xG$
xF$
bx E$
bx D$
bx C$
xB$
bx A$
0@$
bx ?$
x>$
x=$
b1 <$
1;$
b1 :$
09$
b0 8$
b0 7$
b0 6$
05$
14$
b1 3$
02$
b0 1$
b0 0$
b0 /$
bx .$
x-$
bx ,$
bx +$
x*$
x)$
bx ($
bx '$
bx &$
0%$
b0 $$
0#$
bx "$
x!$
x~#
x}#
b1 |#
b1 {#
1z#
b0 y#
b0 x#
b0 w#
b1 v#
0u#
b0 t#
0s#
b0 r#
b0 q#
b0 p#
b0 o#
b1 n#
0m#
0l#
bx k#
0j#
b0 i#
0h#
0g#
xf#
bx e#
bx d#
0c#
bx b#
bx a#
x`#
x_#
bx ^#
bx ]#
bx \#
x[#
bx Z#
0Y#
bx X#
xW#
xV#
b1 U#
0T#
0S#
xR#
bx Q#
bx P#
xO#
bx N#
xM#
bx L#
bx K#
bx J#
bx I#
bx H#
bx G#
xF#
0E#
0D#
b0 C#
bx B#
0A#
0@#
b0 ?#
b0 >#
bx =#
bx <#
bx ;#
bx :#
x9#
bx 8#
bx 7#
x6#
x5#
bx 4#
03#
bx 2#
x1#
10#
x/#
z.#
1-#
bx ,#
bx +#
bx *#
0)#
bx (#
x'#
bx &#
bz %#
b111 $#
b0 ##
b0 "#
b0 !#
b0 ~"
b0 }"
b0 |"
b0 {"
0z"
0y"
0x"
0w"
0v"
b0 u"
b0 t"
b0 s"
b0 r"
b0 q"
b0 p"
b0 o"
b0 n"
b0 m"
b0 l"
b0 k"
b0 j"
bz i"
b0 h"
b0 g"
b0 f"
b0 e"
b0 d"
b0 c"
b0 b"
b0 a"
b0 `"
bz _"
b0 ^"
bz ]"
b0 \"
b0 ["
b0 Z"
bz Y"
zX"
zW"
0V"
0U"
0T"
zS"
zR"
0Q"
0P"
0O"
0N"
zM"
0L"
0K"
b0 J"
b0 I"
b0 H"
bz G"
bz F"
b0 E"
b0 D"
b0 C"
b0 B"
b0 A"
b0 @"
b0 ?"
b11111 >"
b0 ="
b0 <"
b0 ;"
b0 :"
b0 9"
b0 8"
17"
b0 6"
b0 5"
b0 4"
b0 3"
bz 2"
b0 1"
b0 0"
b0 /"
b0 ."
bz -"
b0 ,"
b0 +"
b0 *"
z)"
z("
b0 '"
b0 &"
bz %"
b10000 $"
bx #"
b0 ""
b0 !"
b1000000000000 ~
b0 }
0|
b0 {
b0 z
b1000000000000 y
b0 x
bz w
zv
b0 u
b0 t
zs
b11111 r
bx q
b0 p
0o
0n
0m
0l
0k
b0 j
b0 i
b0 h
bx g
bx f
bx e
b1000000000000 d
zc
0b
za
0`
0_
z^
b0 ]
bx \
b0 [
bz Z
bx Y
bx X
bx W
bz V
b0 U
b0 T
b0 S
b0 R
b0 Q
b0 P
b0 O
b0 N
b0 M
b0 L
b0 K
b0 J
b0 I
b0 H
b0 G
1F
0E
b1000000000000 D
b0 C
b0 B
b0 A
b0 @
x?
1>
1=
0<
1;
0:
09
08
07
bx 6
bx 5
04
b0 3
b0 2
b0 1
b0 0
b0 /
b0 .
b0 -
b0 ,
b0 +
b0 *
b0 )
b0 (
1'
1&
bz %
bx $
z#
bz "
0!
$end
#1000
1V#
0W#
0~#
1}#
1=$
0>$
b0 \#
b0 ]#
b0 &$
b0 '$
0-$
b0 C$
b0 D$
0[#
0B$
b0 <#
b0 :#
b0 =#
b0 ;#
b1 B#
b0 8#
1L"
1K"
1v"
b1 !"
b1000000000100 D
b1000000000100 d
b1000000000100 y
b1000000000100 ~
b1 #"
b1 p
b1000000000000 q
05#
0`#
16#
1_#
b0 b#
b0 a#
0!$
0*$
11#
1)$
b0 ,$
b0 +$
0?
0/#
0G$
1f#
1F$
b0 I$
b0 H$
b0 7#
b0 L#
b0 H#
0M#
b0 N#
b0 Z#
0O#
0R#
b0 Q#
b0 d#
b0 A$
b0 J#
b0 *#
b0 G#
b0 K#
b0 I#
19#
b1 P#
1!
#2000
0!
#3000
0'#
b0 (#
b10 p
b1000000000100 q
1o
b1000000000000 6
b1000000000000 X
b1000000000000 e
b10 !"
b1000000001000 D
b1000000001000 d
b1000000001000 y
b1000000001000 ~
b10 #"
1!
#4000
0!
#5000
b110111 $
b110111 Y
b1 (#
b110111 +#
b11 !"
b1000000001100 D
b1000000001100 d
b1000000001100 y
b1000000001100 ~
b11 #"
b11 p
b1000000001000 q
1m
b1000000000001 6
b1000000000001 X
b1000000000001 e
1!
#6000
0!
#7000
b10 (#
b10111 $
b10111 Y
b10111 +#
b100 p
b1000000001100 q
b1 h
b1000000000010 6
b1000000000010 X
b1000000000010 e
b100 !"
b1000000010000 D
b1000000010000 d
b1000000010000 y
b1000000010000 ~
b100 #"
1!
#8000
0!
#9000
b0 $
b0 Y
b11 (#
b0 +#
b101 !"
b1000000010100 D
b1000000010100 d
b1000000010100 y
b1000000010100 ~
b101 #"
b101 p
b1000000010000 q
b10 h
b1000000000011 6
b1000000000011 X
b1000000000011 e
1!
#10000
0!
#11000
b100 (#
b110 p
b1000000010100 q
b11 h
b1000000000100 6
b1000000000100 X
b1000000000100 e
b110 !"
b1000000011000 D
b1000000011000 d
b1000000011000 y
b1000000011000 ~
b110 #"
1!
#12000
0!
#13000
b10000011 $
b10000011 Y
b101 (#
b10000011 +#
b111 !"
b1000000011100 D
b1000000011100 d
b1000000011100 y
b1000000011100 ~
b111 #"
b111 p
b1000000011000 q
b0 h
0m
1_
1:
1k
b1000000000000 W
b1000000000000 f
b1011100110111 A
b1011100110111 [
b1011100110111 t
b1011100110111 ]
b1011100110111 i
1`
19
1l
b1000000000101 6
b1000000000101 X
b1000000000101 e
1!
#14000
0!
#15000
b100111 $
b100111 Y
b100111 +#
b1000 p
b1000000011100 q
b1 j
0o
0_
0:
0k
b1000 !"
b1000000100000 D
b1000000100000 d
b1000000100000 y
b1000000100000 ~
b1000 #"
b1 ""
1!
#16000
0!
#17000
b100 (#
b1 B
b1 '"
b1 H"
b1 C
b1 G
b1 O
b1 &"
b1110 ,
b1110 J
b1110 1"
b1110 S
b1011100110111 P
b1 z
0>
0=
b1011100110111 @
b1011100110111 N
b1011100110111 u
b1011100110111 {
b1001 !"
b1000000100100 D
b1000000100100 d
b1000000100100 y
b1000000100100 ~
b1001 #"
b1001 p
b1000000100000 q
1o
b1000000000100 6
b1000000000100 X
b1000000000100 e
1!
#18000
0!
#19000
b101 (#
b10000011 $
b10000011 Y
b10000011 +#
b1010 p
b1000000100100 q
1m
b1000000000101 6
b1000000000101 X
b1000000000101 e
1>
1=
b1010 !"
b1000000101000 D
b1000000101000 d
b1000000101000 y
b1000000101000 ~
b1010 #"
0;
07"
1!
#20000
0!
#21000
b100111 $
b100111 Y
b110 (#
b100111 +#
b1 !#
b1 J"
b1 I"
b1 u"
0L"
0K"
0v"
1;
17"
b1011 !"
b1000000101100 D
b1000000101100 d
b1000000101100 y
b1000000101100 ~
b1011 #"
b1011 p
b1000000101000 q
b1 h
b1000000000110 6
b1000000000110 X
b1000000000110 e
1!
#22000
0!
#23000
b111 (#
b111 $
b111 Y
b111 +#
b1100 p
b1000000101100 q
b10 h
b1000000000111 6
b1000000000111 X
b1000000000111 e
b1100 !"
b1000000110000 D
b1000000110000 d
b1000000110000 y
b1000000110000 ~
b1100 #"
1L"
1K"
1v"
1!
#24000
0!
#25000
b11010 $
b11010 Y
b0 (#
b11010 +#
b1101 !"
b1000000110100 D
b1000000110100 d
b1000000110100 y
b1000000110100 ~
b1101 #"
b1101 p
b1000000110000 q
b11 h
b1000000001000 6
b1000000001000 X
b1000000001000 e
1!
#26000
0!
#27000
b1 (#
b110011 $
b110011 Y
b110011 +#
b1110 p
b1000000110100 q
b0 h
0m
1_
1:
1k
b1000000000100 W
b1000000000100 f
b11010000001110010011110000011 A
b11010000001110010011110000011 [
b11010000001110010011110000011 t
b11010000001110010011110000011 ]
b11010000001110010011110000011 i
b1000000001001 6
b1000000001001 X
b1000000001001 e
b1110 !"
b1000000111000 D
b1000000111000 d
b1000000111000 y
b1000000111000 ~
b1110 #"
1!
#28000
0!
#29000
b1000101 $
b1000101 Y
b1000101 +#
b1111 !"
b1000000111100 D
b1000000111100 d
b1000000111100 y
b1000000111100 ~
b1111 #"
b10 ""
b1111 p
b1000000111000 q
b10 j
0o
0_
0:
0k
1!
#30000
0!
#31000
b0 (#
b1100 3
b1100 H
b1100 *"
b1100 Q
b1111 ,
b1111 J
b1111 1"
b1111 S
b1000000000100 1
b1000000000100 I
b1000000000100 ,"
b1000000000100 R
b110100000 B
b110100000 '"
b110100000 H"
b110100000 C
b110100000 G
b110100000 O
b110100000 &"
b1110 +
b1110 K
b1110 3"
b1110 T
b11010000001110010011110000011 P
b10000 p
b1000000111100 q
1o
b1000000001000 6
b1000000001000 X
b1000000001000 e
b10 z
0>
0=
b11010000001110010011110000011 @
b11010000001110010011110000011 N
b11010000001110010011110000011 u
b11010000001110010011110000011 {
b1000000000100 0
b1000000000100 M
b1000000000100 x
b1000000000100 }
b0 !"
b1000001000000 D
b1000001000000 d
b1000001000000 y
b1000001000000 ~
b10000 #"
1!
#32000
0!
#33000
b110011 $
b110011 Y
b1 (#
b110011 +#
0;
07"
b1100 2
b1100 +"
b1100 Z"
b1100 8"
b1000000000100 /
b1000000000100 ."
b1000000000100 ^"
b1000000000100 9"
1>
1=
b1 !"
b1000001000100 D
b1000001000100 d
b1000001000100 y
b1000001000100 ~
b1 #"
b10001 p
b1000001000000 q
1m
b1000000001001 6
b1000000001001 X
b1000000001001 e
1!
#34000
0!
#35000
b10 (#
b1000101 $
b1000101 Y
b1000101 +#
b10010 p
b1000001000100 q
b1 h
b1000000001010 6
b1000000001010 X
b1000000001010 e
1<
1|
1;
17"
b10 !#
1V"
1U"
1y"
b1000000000100 b"
b1000000000100 a"
b1000000000100 |"
b1100 \"
b1100 ["
b1100 {"
b110100000 J"
b110100000 I"
b110100000 u"
0L"
0K"
0v"
1!
#36000
0!
#37000
b11110101 $
b11110101 Y
b11 (#
b11110101 +#
1L"
1K"
1v"
b10 h
b1000000001011 6
b1000000001011 X
b1000000001011 e
1!
#38000
0!
#39000
b100 (#
b0 $
b0 Y
b0 +#
b11 h
b1000000001100 6
b1000000001100 X
b1000000001100 e
1!
#40000
0!
#41000
b10011 $
b10011 Y
b101 (#
b10011 +#
b0 h
0m
1_
1:
1k
b1000000001000 W
b1000000001000 f
b111101010100010100110011 A
b111101010100010100110011 [
b111101010100010100110011 t
b111101010100010100110011 ]
b111101010100010100110011 i
b1000000001101 6
b1000000001101 X
b1000000001101 e
1!
#42000
0!
#43000
b101 $
b101 Y
b101 +#
b11 j
0o
0_
0:
0k
b11 ""
1!
#44000
0!
#45000
b100 (#
b100000 3
b100000 H
b100000 *"
b100000 Q
b1111 *
b1111 L
b1111 4"
b1111 U
b1010 ,
b1010 J
b1010 1"
b1010 S
b1000000001000 1
b1000000001000 I
b1000000001000 ,"
b1000000001000 R
b0 B
b0 '"
b0 H"
b0 C
b0 G
b0 O
b0 &"
b1010 +
b1010 K
b1010 3"
b1010 T
b111101010100010100110011 P
b11 z
0>
0=
b111101010100010100110011 @
b111101010100010100110011 N
b111101010100010100110011 u
b111101010100010100110011 {
b1000000001000 0
b1000000001000 M
b1000000001000 x
b1000000001000 }
1o
b1000000001100 6
b1000000001100 X
b1000000001100 e
1!
#46000
0!
